{
  "project_info": {
    "project_number": "972542060137",
    "firebase_url": "https://tekpay-2f85d.firebaseio.com",
    "project_id": "tekpay-2f85d",
    "storage_bucket": "tekpay-2f85d.appspot.com"
  },
  "client": [
    {
      "client_info": {
        "mobilesdk_app_id": "1:972542060137:android:338c6479e0c3334e13e4f8",
        "android_client_info": {
          "package_name": "com.bipfunorders.app"
        }
      },
      "oauth_client": [
        {
          "client_id": "972542060137-ibveiieue956do6l1275b1v9dkfa7t5d.apps.googleusercontent.com",
          "client_type": 3
        }
      ],
      "api_key": [
        {
          "current_key": "AIzaSyD5Q01EztPEWFT95cGGw5o-Xy2Jd5_zJzo"
        }
      ],
      "services": {
        "appinvite_service": {
          "other_platform_oauth_client": [
            {
              "client_id": "972542060137-ibveiieue956do6l1275b1v9dkfa7t5d.apps.googleusercontent.com",
              "client_type": 3
            }
          ]
        }
      }
    },
    {
      "client_info": {
        "mobilesdk_app_id": "1:972542060137:android:d0e802086dd0063213e4f8",
        "android_client_info": {
          "package_name": "com.tekpay.app"
        }
      },
      "oauth_client": [
        {
          "client_id": "972542060137-l0e9h8pv7f3jkjf7s6gk188o777lqgon.apps.googleusercontent.com",
          "client_type": 1,
          "android_info": {
            "package_name": "com.tekpay.app",
            "certificate_hash": "d90c12cfc7a6d76065389dda12b2d71bb75026ea"
          }
        },
        {
          "client_id": "972542060137-ibveiieue956do6l1275b1v9dkfa7t5d.apps.googleusercontent.com",
          "client_type": 3
        }
      ],
      "api_key": [
        {
          "current_key": "AIzaSyD5Q01EztPEWFT95cGGw5o-Xy2Jd5_zJzo"
        }
      ],
      "services": {
        "appinvite_service": {
          "other_platform_oauth_client": [
            {
              "client_id": "972542060137-ibveiieue956do6l1275b1v9dkfa7t5d.apps.googleusercontent.com",
              "client_type": 3
            }
          ]
        }
      }
    }
  ],
  "configuration_version": "1"
}