{
  "scriptFolder":"migrations",
  "connection" : {
    "driver"     : "oci8",
    "host"       : "192.168.122.5",
    "port"       : "1521",
    "username"   : "IMPORT_POSTGREE" ,
    "password"   : "jRKSQbsKTjotXBQ3dK0caNJ/dFoNYqEPOMmqKazolFw=",
    "dbname"     : "pdborcl",
    "service"    : true
  }
}