<svg width="512" height="440" viewBox="0 0 512 440" fill="none" xmlns="http://www.w3.org/2000/svg">
<path d="M507.614 321.744C506.579 317.735 502.493 315.32 498.477 316.358C494.467 317.394 492.055 321.483 493.091 325.494C494.949 332.69 496.113 340.082 496.57 347.55H354.568C352.619 346.72 350.552 346.115 348.403 345.757C348.404 345.586 348.41 345.416 348.41 345.244C348.41 311.876 331.071 282.483 304.932 265.595C316.405 255.884 329.467 248.579 343.498 243.953C348.994 259.044 363.494 269.615 380.146 269.615C396.775 269.615 411.26 259.073 416.772 244.014C444.53 253.192 468.305 272.628 482.717 299.159C484.798 302.991 489.858 304.228 493.485 301.807C496.663 299.685 497.719 295.353 495.899 291.999C490.031 281.199 482.785 271.445 474.453 262.894C481.384 257.719 487.365 249.834 492.309 239.316C511.927 197.582 511.88 117.847 498.079 81.8463C488.886 57.8632 472.853 37.4929 451.718 22.9385C430.569 8.37403 405.82 0.675316 380.147 0.675316C349.508 0.675316 319.94 11.8139 296.888 32.0391C293.775 34.771 293.465 39.5089 296.197 42.6228C298.928 45.7366 303.667 46.0456 306.781 43.3137C327.095 25.4904 353.151 15.6748 380.147 15.6748C402.767 15.6748 424.575 22.4585 443.211 35.292C461.84 48.1206 475.97 66.0749 484.074 87.2151C496.579 119.838 496.572 194.988 478.733 232.936C474.206 242.564 468.936 249.109 463.027 252.477C450.185 242.072 435.48 234.143 419.657 229.168C450.594 214.368 472.016 182.76 472.016 146.238V131.065C472.016 127.414 469.387 124.293 465.787 123.674C428.662 117.291 402.969 79.6154 402.719 79.2434C399.44 74.3386 391.763 75.1205 389.538 80.5803C389.362 81.0103 371.15 123.566 295.773 123.566C291.63 123.566 288.273 126.924 288.273 131.065V146.238C288.273 182.736 309.667 214.327 340.572 229.139C324.872 234.065 310.206 241.933 297.254 252.471C291.349 249.101 286.081 242.558 281.557 232.935C263.72 194.987 263.713 119.837 276.218 87.2151C279.302 79.1704 283.311 71.4947 288.134 64.4019C290.463 60.9771 289.574 56.3122 286.149 53.9833C282.725 51.6554 278.06 52.5424 275.731 55.9683C270.258 64.016 265.711 72.7226 262.212 81.8453C248.413 117.845 248.365 197.58 267.984 239.314C270.483 244.63 273.252 249.258 276.269 253.22C269.703 251.606 262.872 250.674 255.854 250.514C255.106 244.643 254.595 236.336 256.02 229.863C256.911 225.818 254.353 221.817 250.309 220.926C246.266 220.036 242.263 222.593 241.372 226.638C239.977 232.974 239.939 240.004 240.344 245.938C228.566 238.394 226.313 226.992 226.185 226.29C225.496 222.231 221.659 219.482 217.585 220.145C213.497 220.811 210.722 224.665 211.388 228.753C211.52 229.567 213.967 243.457 226.628 254.419C224.298 255.114 222.006 255.895 219.754 256.76C205.624 244.066 189.167 234.724 171.408 229.148C187.113 221.626 200.361 209.769 209.597 195.137C213.427 197.112 217.705 198.177 222.091 198.177C237.169 198.177 249.437 185.909 249.437 170.831C249.437 164.99 247.59 159.575 244.458 155.128C264.031 98.2937 255.396 65.0019 244.499 46.9876C233.628 29.0193 215.566 17.4687 193.64 14.4648C178.047 12.3279 165.293 16.4897 158.142 19.7546C147.713 7.33807 135.843 0.674316 111.224 0.674316C82.9689 0.674316 42.9084 15.3288 21.7191 47.5046C-1.79099 83.2043 6.7277 125.182 18.9872 155.506C16.0154 159.88 14.2764 165.156 14.2764 170.832C14.2764 185.91 26.544 198.178 41.6234 198.178C46.0082 198.178 50.2871 197.112 54.1159 195.138C63.3406 209.752 76.5671 221.598 92.2465 229.122C71.4283 235.647 52.469 247.353 36.8686 263.607C34.2647 266.319 34.0997 270.688 36.5026 273.584C39.3235 276.982 44.6303 277.18 47.6902 273.993C61.1237 259.997 77.3701 249.812 95.2044 243.942C100.697 259.039 115.199 269.616 131.855 269.616C148.499 269.616 162.994 259.054 168.495 243.974C181.706 248.333 194.073 255.06 205.051 263.933C177.426 280.507 158.896 310.751 158.896 345.245C158.896 345.417 158.902 345.587 158.903 345.758C156.754 346.116 154.687 346.721 152.738 347.551H15.4324C16.5403 329.602 21.7721 312.113 30.7298 296.576C32.7987 292.988 31.5678 288.402 27.9799 286.333C24.393 284.265 19.8052 285.495 17.7363 289.084C6.27071 308.967 0.210938 331.675 0.210938 354.754V355.05C0.210938 359.192 3.56881 362.55 7.71066 362.55H138.044C136.778 365.697 136.073 369.129 136.073 372.723C136.073 387.802 148.34 400.069 163.419 400.069C167.369 400.069 171.211 399.223 174.725 397.617C191.72 423.144 220.753 440 253.652 440C286.551 440 315.584 423.144 332.579 397.617C336.093 399.223 339.935 400.069 343.885 400.069C358.964 400.069 371.232 387.802 371.232 372.723C371.232 369.129 370.528 365.697 369.261 362.55H504.288C508.431 362.55 511.788 359.192 511.788 355.05V354.754C511.789 343.578 510.385 332.471 507.614 321.744ZM222.089 183.18C220.117 183.18 218.239 182.71 216.543 181.847C219.64 174.508 221.806 166.685 222.902 158.527C229.33 158.949 234.435 164.299 234.435 170.833C234.436 177.641 228.896 183.18 222.089 183.18ZM34.2447 55.7553C52.38 28.2173 86.8597 15.6748 111.222 15.6748C135.013 15.6748 141.773 22.5135 150.077 33.7781C152.447 36.994 156.956 37.7619 160.287 35.559C160.418 35.471 173.671 26.8673 191.602 29.3273C208.955 31.7042 223.183 40.7348 231.663 54.7533C244.291 75.6275 244.345 106.816 231.922 145.323C229.353 144.329 226.6 143.711 223.726 143.54V131.065C223.726 127.414 221.096 124.293 217.497 123.674C180.371 117.291 154.678 79.6154 154.428 79.2434C151.158 74.3496 143.496 75.0616 141.267 80.5334C141.222 80.6403 136.564 91.3869 122.89 101.966C104.627 116.096 78.552 123.565 47.4832 123.565C43.3413 123.565 39.9835 126.923 39.9835 131.064V143.539C36.8866 143.723 33.9277 144.424 31.1908 145.558C17.6023 109.673 18.6133 79.4914 34.2447 55.7553ZM41.6214 183.18C34.8127 183.18 29.2739 177.641 29.2739 170.833C29.2739 164.299 34.3787 158.949 40.8074 158.527C41.9024 166.68 44.0663 174.498 47.1602 181.833C45.4543 182.699 43.5633 183.18 41.6214 183.18ZM55.1719 151.347C55.1689 151.311 55.1669 151.275 55.1639 151.24C55.0569 149.585 54.9839 147.921 54.9839 146.239V138.433C111.874 136.396 138.299 111.373 148.969 96.7047C159.291 108.968 180.41 129.979 208.727 137.135V146.239C208.727 147.921 208.653 149.585 208.547 151.24C208.544 151.276 208.542 151.312 208.539 151.348C205.898 191.359 172.525 223.11 131.856 223.11C91.1866 223.109 57.8128 191.359 55.1719 151.347ZM131.855 254.617C122.107 254.617 113.562 248.731 109.841 240.169C117.015 238.811 124.374 238.109 131.855 238.109C139.316 238.109 146.676 238.813 153.862 240.182C150.138 248.737 141.598 254.617 131.855 254.617ZM380.145 254.617C370.401 254.617 361.858 248.735 358.134 240.177C365.314 238.813 372.675 238.108 380.145 238.108C387.612 238.108 394.967 238.835 402.139 240.21C398.408 248.75 389.875 254.617 380.145 254.617ZM303.273 146.238V138.432C360.163 136.395 386.589 111.372 397.258 96.7038C407.58 108.967 428.7 129.978 457.016 137.134V146.238C457.016 188.625 422.532 223.109 380.145 223.109C337.757 223.109 303.273 188.625 303.273 146.238ZM163.419 385.07C156.611 385.07 151.072 379.531 151.072 372.723C151.072 367.036 154.943 362.248 160.184 360.821C161.557 369.089 164 376.998 167.372 384.4C166.11 384.832 164.781 385.07 163.419 385.07ZM253.653 425.001C209.674 425.001 173.895 389.222 173.895 345.244C173.895 301.265 209.674 265.486 253.653 265.486C297.631 265.486 333.41 301.265 333.41 345.244C333.41 389.222 297.631 425.001 253.653 425.001ZM343.886 385.07C342.525 385.07 341.196 384.832 339.934 384.4C343.306 376.998 345.749 369.088 347.122 360.821C352.363 362.248 356.234 367.037 356.234 372.723C356.234 379.531 350.695 385.07 343.886 385.07Z" fill="#2D68C4"/>
</svg>
