<?xml version="1.0" encoding="UTF-8" standalone="no"?>
<!DOCTYPE svg PUBLIC "-//W3C//DTD SVG 1.1//EN" "http://www.w3.org/Graphics/SVG/1.1/DTD/svg11.dtd">
<svg width="100%" height="100%" viewBox="0 0 907 158" version="1.1" xmlns="http://www.w3.org/2000/svg" xmlns:xlink="http://www.w3.org/1999/xlink" xml:space="preserve" xmlns:serif="http://www.serif.com/" style="fill-rule:evenodd;clip-rule:evenodd;stroke-linejoin:round;stroke-miterlimit:1.41421;">
    <g transform="matrix(1,0,0,1,-86.5964,-75.1244)">
        <g transform="matrix(0,1,1,0,305.88,82.4554)">
            <path d="M-7.331,-21.982L21.982,-21.982L7.321,-7.331L-7.331,-21.982Z" style="fill:white;fill-rule:nonzero;"/>
        </g>
        <g transform="matrix(-0.707107,-0.707107,-0.707107,0.707107,286.044,212.75)">
            <path d="M-12.51,-5.182L8.217,-5.182L-12.51,15.545L-12.511,-5.169L-12.51,-5.182Z" style="fill:white;fill-rule:nonzero;"/>
        </g>
        <g transform="matrix(1,0,0,1,298.545,217.931)">
            <path d="M0,0.01L0.018,0.01L0.008,0L0,0.01Z" style="fill:white;fill-rule:nonzero;"/>
        </g>
        <g transform="matrix(1,0,0,1,400.047,203.284)">
            <path d="M0,-34.771C-6.245,-14.634 -25.017,-0.009 -47.208,-0.009L-108.479,-0.009L-116.149,-0.009L-101.493,14.647L-101.484,14.657L-47.208,14.657C-31.706,14.657 -17.49,9.15 -6.408,-0.009C4.205,-8.781 11.93,-20.916 15.173,-34.771C16.276,-39.48 16.878,-44.382 16.878,-49.428L0,-34.771Z" style="fill:white;fill-rule:nonzero;"/>
        </g>
        <g transform="matrix(1,0,0,1,415.22,104.432)">
            <path d="M0,34.768C-3.244,20.911 -10.967,8.777 -21.581,0.004C-32.632,-9.128 -46.796,-14.623 -62.242,-14.656L-62.38,-14.656L-108.108,-14.656L-116.671,-14.656L-131.321,0.004L-62.38,0.004C-40.191,0.004 -21.417,14.631 -15.172,34.768L1.704,49.424C1.704,44.379 1.104,39.476 0,34.768" style="fill:white;fill-rule:nonzero;"/>
        </g>
        <g transform="matrix(1,0,0,1,400.047,153.856)">
            <path d="M0,-14.656L-59.021,-14.656L-59.021,-14.655L-44.364,0L16.878,0L0,-14.656Z" style="fill:white;fill-rule:nonzero;"/>
        </g>
        <g transform="matrix(1,0,0,1,402.258,168.514)">
            <path d="M0,-14.657L-46.575,-14.657L-46.575,-14.656L-61.232,-0.002L-61.232,0L-2.211,0L14.667,-14.657L0,-14.657Z" style="fill:white;fill-rule:nonzero;"/>
        </g>
        <g transform="matrix(0,1,1,0,363.009,146.529)">
            <path d="M-7.327,-21.983L21.983,-21.983L7.329,-7.327L7.328,-7.327L-7.327,-21.983Z" style="fill:white;fill-rule:nonzero;"/>
        </g>
        <g transform="matrix(1,0,0,1,415.22,217.93)">
            <path d="M0,-49.417C-3.244,-35.562 -10.967,-23.427 -21.581,-14.655C-32.663,-5.496 -46.878,0.011 -62.38,0.011L-108.104,0.011L-116.657,0.011L-116.675,0.011L-131.321,14.657L-62.38,14.657C-37.618,14.657 -15.541,3.217 -1.107,-14.655C6.884,-24.55 12.519,-36.418 14.968,-49.417C15.862,-54.167 16.351,-59.062 16.351,-64.074L1.704,-64.074C1.704,-59.028 1.104,-54.126 0,-49.417" style="fill:white;fill-rule:nonzero;"/>
        </g>
        <g transform="matrix(1,0,0,1,414.112,124.544)">
            <path d="M0,-20.107C-14.433,-37.98 -36.512,-49.42 -61.272,-49.42L-130.214,-49.42L-115.563,-34.768L-61.134,-34.768C-45.687,-34.735 -31.523,-29.24 -20.473,-20.107C-9.86,-11.336 -2.135,0.798 1.108,14.657C2.211,19.366 2.813,24.267 2.813,29.313L17.458,29.313C17.458,24.302 16.97,19.407 16.075,14.657C13.627,1.658 7.992,-10.211 0,-20.107" style="fill:white;fill-rule:nonzero;"/>
        </g>
        <g transform="matrix(1,0,0,1,89.8457,104.437)">
            <path d="M0,-29.313L0,0L14.656,-14.655L0,-29.313Z" style="fill:white;fill-rule:nonzero;"/>
        </g>
        <g transform="matrix(1,0,0,1,239.883,217.934)">
            <path d="M0,-0.046L0.044,0L0.091,-0.046L0,-0.046Z" style="fill:white;fill-rule:nonzero;"/>
        </g>
        <g transform="matrix(-0.691571,0.722308,0.722308,0.691571,252.325,212.702)">
            <path d="M12.287,-5.335L12.352,-5.335L12.801,15.384L-8.371,-4.887L12.287,-5.335Z" style="fill:white;fill-rule:nonzero;"/>
        </g>
        <g transform="matrix(1,0,0,1,225.514,89.8141)">
            <path d="M0,-0.032L-0.028,0L0.043,-0.032L0,-0.032Z" style="fill:white;fill-rule:nonzero;"/>
        </g>
        <g transform="matrix(1,0,0,1,89.8457,89.7824)">
            <path d="M0,-14.658L14.656,0L135.711,0L167.14,-14.658L0,-14.658Z" style="fill:white;fill-rule:nonzero;"/>
        </g>
        <g transform="matrix(1,0,0,1,206.426,104.438)">
            <path d="M0,-14.656L-101.924,-14.656L-116.58,0L-12.298,0L19.061,-14.623L19.088,-14.656L0,-14.656Z" style="fill:white;fill-rule:nonzero;"/>
        </g>
        <g transform="matrix(1,0,0,1,118.027,217.96)">
            <path d="M0,-0.072L-0.06,0L0.095,-0.072L0,-0.072Z" style="fill:white;fill-rule:nonzero;"/>
        </g>
        <g transform="matrix(1,0,0,1,149.456,217.886)">
            <path d="M0,-14.611L-31.335,0L90.517,0L105.129,-14.611L0,-14.611Z" style="fill:white;fill-rule:nonzero;"/>
        </g>
        <g transform="matrix(1,0,0,1,194.127,217.966)">
            <path d="M0,-113.529L-82.935,-14.69L-107.531,14.622L-76.162,-0.006L-76.1,-0.078L-63.841,-14.69L19.09,-113.529L31.36,-128.151L0,-113.529Z" style="fill:white;fill-rule:nonzero;"/>
        </g>
        <g transform="matrix(1,0,0,1,225.557,203.231)">
            <path d="M0,-113.448L-0.069,-113.416L-12.339,-98.793L-95.27,0.045L-107.529,14.658L-107.436,14.658L-76.1,0.045L6.835,-98.793L31.43,-128.106L0,-113.448Z" style="fill:white;fill-rule:nonzero;"/>
        </g>
        <g transform="matrix(1,0,0,1,137.196,232.587)">
            <path d="M0,-14.699L-19.075,-14.699L-19.23,-14.627L-50.599,0L117.388,0L102.731,-14.653L102.687,-14.699L0,-14.699Z" style="fill:white;fill-rule:nonzero;"/>
        </g>
        <g transform="matrix(0.706914,0.7073,0.7073,-0.706914,586.284,84.5979)">
            <path d="M2.145,-5.182L22.87,-5.182L12.502,5.18L2.138,15.538L2.145,-5.182Z" style="fill:white;fill-rule:nonzero;"/>
        </g>
        <g transform="matrix(0.707131,-0.707083,-0.707083,-0.707131,586.275,223.114)">
            <path d="M2.146,5.182L22.874,5.182L2.148,-15.546L2.147,5.17L2.146,5.182Z" style="fill:white;fill-rule:nonzero;"/>
        </g>
        <g transform="matrix(1,0,0,1,584.121,217.933)">
            <path d="M0,0.008L0.017,0.008L0.009,0L0,0.008Z" style="fill:white;fill-rule:nonzero;"/>
        </g>
        <g transform="matrix(1,0,0,1,482.636,203.285)">
            <path d="M0,-34.771C6.245,-14.636 25.017,-0.009 47.208,-0.009L116.149,-0.009L101.493,14.646L101.485,14.656L92.93,14.656L47.208,14.656C31.706,14.656 17.49,9.151 6.408,-0.009C-4.207,-8.781 -11.93,-20.915 -15.172,-34.771C-16.276,-39.481 -16.877,-44.382 -16.877,-49.427L0,-34.771Z" style="fill:white;fill-rule:nonzero;"/>
        </g>
        <g transform="matrix(1,0,0,1,467.463,104.433)">
            <path d="M0,34.769C3.244,20.912 10.968,8.778 21.581,0.005C32.632,-9.127 46.796,-14.624 62.242,-14.656L116.671,-14.656L131.322,0.005L123.654,0.005L62.38,0.005C40.191,0.005 21.417,14.631 15.173,34.769L-1.704,49.425C-1.704,44.38 -1.104,39.477 0,34.769" style="fill:white;fill-rule:nonzero;"/>
        </g>
        <g transform="matrix(1,0,0,1,482.636,153.858)">
            <path d="M0,-14.656L59.021,-14.656L44.364,0L-2.211,0L-16.877,0L0,-14.656Z" style="fill:white;fill-rule:nonzero;"/>
        </g>
        <g transform="matrix(1,0,0,1,480.425,168.514)">
            <path d="M0,-14.656L46.576,-14.656L61.232,-0.001L61.232,0L2.211,0L-14.666,-14.656L0,-14.656Z" style="fill:white;fill-rule:nonzero;"/>
        </g>
        <g transform="matrix(1,0,0,1,541.657,168.513)">
            <path d="M0,-29.311L0,0L-14.657,-14.655L0,-29.311Z" style="fill:white;fill-rule:nonzero;"/>
        </g>
        <g transform="matrix(1,0,0,1,467.463,217.932)">
            <path d="M0,-49.418C3.244,-35.562 10.968,-23.428 21.581,-14.656C32.663,-5.496 46.878,0.009 62.38,0.009L116.675,0.009L131.322,14.656L62.38,14.656C37.62,14.656 15.541,3.217 1.108,-14.656C-6.884,-24.551 -12.519,-36.42 -14.968,-49.418C-15.862,-54.17 -16.35,-59.063 -16.35,-64.074L-1.704,-64.074C-1.704,-59.029 -1.104,-54.128 0,-49.418" style="fill:white;fill-rule:nonzero;"/>
        </g>
        <g transform="matrix(1,0,0,1,468.571,124.544)">
            <path d="M0,-20.105C14.433,-37.978 36.512,-49.418 61.272,-49.418L130.214,-49.418L115.563,-34.766L107.001,-34.766L61.272,-34.766L61.134,-34.766C45.688,-34.735 31.524,-29.238 20.473,-20.105C9.86,-11.334 2.136,0.8 -1.108,14.659C-2.211,19.366 -2.813,24.269 -2.813,29.313L-17.458,29.313C-17.458,24.304 -16.97,19.408 -16.075,14.659C-13.627,1.658 -7.992,-10.21 0,-20.105" style="fill:white;fill-rule:nonzero;"/>
        </g>
        <g transform="matrix(1,0,0,1,642.709,89.7717)">
            <path d="M0,-0.036L0.036,0L0.036,-0.036L0,-0.036Z" style="fill:white;fill-rule:nonzero;"/>
        </g>
        <g transform="matrix(-0.707107,0.707107,0.707107,0.707107,647.941,230.437)">
            <path d="M-5.175,-12.516L-5.17,-12.516L15.551,-12.51L-5.175,8.216L-5.175,-12.516Z" style="fill:white;fill-rule:nonzero;"/>
        </g>
        <g transform="matrix(1,0,0,1,642.745,217.921)">
            <path d="M0,0.01L0.005,0.004L0,0L0,0.01Z" style="fill:white;fill-rule:nonzero;"/>
        </g>
        <g transform="matrix(1,0,0,1,628.099,232.587)">
            <path d="M0,-157.463L0,0L14.647,-14.656L14.647,-14.666L14.647,-17.185L14.647,-29.312L14.647,-73.039L14.647,-84.423L14.647,-128.15L14.647,-140.277L14.647,-142.815L14.61,-142.853L0,-157.463Z" style="fill:white;fill-rule:nonzero;"/>
        </g>
        <g transform="matrix(1,0,0,1,644.19,231.143)">
            <path d="M0,-139.927L-1.445,-141.372L-1.445,-13.221L-1.44,-13.217L13.221,1.445L13.221,-6.465L13.221,-27.868L13.221,-33.871L13.221,-41.841L13.221,-112.733L13.221,-126.706L0,-139.927Z" style="fill:white;fill-rule:nonzero;"/>
        </g>
        <g transform="matrix(1,0,0,1,697.422,217.93)">
            <path d="M0,0.047L-5.106,-5.059L-14.657,-14.609L-14.657,14.656L-14.611,14.656L-13.426,13.473L-5.106,5.153L0,0.047Z" style="fill:white;fill-rule:nonzero;"/>
        </g>
        <g transform="matrix(1,0,0,1,761.543,217.977)">
            <path d="M0,-64.12L-14.701,-64.12C-14.701,-36.827 -36.828,-14.703 -64.122,-14.703L-69.227,-14.703L-78.778,-14.703L-78.778,-14.657L-69.227,-5.105L-64.122,0C-48.593,0 -34.358,-5.518 -23.265,-14.703C-9.055,-26.464 0,-44.233 0,-64.12" style="fill:white;fill-rule:nonzero;"/>
        </g>
        <g transform="matrix(1,0,0,1,738.278,139.156)">
            <path d="M0,-34.719C-11.095,-43.902 -25.33,-49.42 -40.856,-49.42L-80.868,-49.42L-92.124,-49.42L-95.532,-49.42L-95.532,-49.385L-94.089,-47.94L-80.868,-34.719L-40.856,-34.719C-13.563,-34.719 8.563,-12.593 8.563,14.701L23.265,14.701C23.265,-5.187 14.21,-22.958 0,-34.719" style="fill:white;fill-rule:nonzero;"/>
        </g>
        <g transform="matrix(1,0,0,1,738.278,183.169)">
            <path d="M0,20.106C-11.093,29.289 -25.33,34.808 -40.856,34.808L-45.963,39.915L-54.282,48.234L-55.467,49.418L-45.963,49.418L-45.963,49.243C-44.273,49.351 -42.573,49.418 -40.856,49.418C-16.095,49.418 5.982,37.978 20.416,20.106C31.327,6.592 37.874,-10.593 37.874,-29.312L23.265,-29.312C23.265,-9.426 14.21,8.344 0,20.106" style="fill:white;fill-rule:nonzero;"/>
        </g>
        <g transform="matrix(1,0,0,1,697.422,153.856)">
            <path d="M0,-78.731L-40.011,-78.731L-69.324,-78.731L-54.712,-64.121L0,-64.121C15.525,-64.121 29.763,-58.602 40.856,-49.419C55.066,-37.657 64.121,-19.886 64.121,0L78.73,0C78.73,-18.722 72.185,-35.906 61.272,-49.419C46.839,-67.292 24.761,-78.731 0,-78.731" style="fill:white;fill-rule:nonzero;"/>
        </g>
        <g transform="matrix(0.7073,-0.706914,-0.706914,-0.7073,1021.73,214.838)">
            <path d="M-53.511,28.225L-32.79,28.225L57.807,118.871L57.801,139.598L-53.511,28.225Z" style="fill:white;fill-rule:nonzero;"/>
        </g>
        <g transform="matrix(1,0,0,1,963.934,218.054)">
            <path d="M0,14.648L29.312,14.648L14.656,0L0,14.648Z" style="fill:white;fill-rule:nonzero;"/>
        </g>
        <g transform="matrix(0,1,1,0,1049.99,146.643)">
            <path d="M-56.747,-71.403L71.412,-71.403L86.059,-56.747L-71.403,-56.747L-56.747,-71.403Z" style="fill:white;fill-rule:nonzero;"/>
        </g>
        <g transform="matrix(1,0,0,1,963.934,89.8961)">
            <path d="M0,-14.656L14.656,0L29.312,-14.656L0,-14.656Z" style="fill:white;fill-rule:nonzero;"/>
        </g>
        <g transform="matrix(1,0,0,1,795.694,89.7824)">
            <path d="M0,-14.658L14.656,0L29.312,-14.658L0,-14.658Z" style="fill:white;fill-rule:nonzero;"/>
        </g>
        <g transform="matrix(1,0,0,1,905.094,217.942)">
            <path d="M0,14.646L29.312,14.646L14.656,0L0,14.646Z" style="fill:white;fill-rule:nonzero;"/>
        </g>
        <g transform="matrix(1,0,0,1,905.095,139.112)">
            <path d="M0,0.088L0.089,0.088L0,0L0,0.088Z" style="fill:white;fill-rule:nonzero;"/>
        </g>
        <g transform="matrix(1,0,0,1,905.095,89.7824)">
            <path d="M0,-14.658L14.656,0L29.312,-14.658L0,-14.658Z" style="fill:white;fill-rule:nonzero;"/>
        </g>
        <g transform="matrix(1,0,0,1,905.005,168.424)">
            <path d="M0,0.089L0.09,0.089L0.09,0L0,0.089Z" style="fill:white;fill-rule:nonzero;"/>
        </g>
        <g transform="matrix(1,0,0,1,825.007,153.859)">
            <path d="M0,-78.735L-14.656,-64.077L-14.656,0L0,-14.658L0,-78.735Z" style="fill:white;fill-rule:nonzero;"/>
        </g>
        <g transform="matrix(1,0,0,1,795.694,232.587)">
            <path d="M0,-157.463L0,0L14.656,-14.655L14.656,-64.072L14.656,-78.728L14.656,-93.386L14.656,-142.805L0,-157.463Z" style="fill:white;fill-rule:nonzero;"/>
        </g>
        <g transform="matrix(1,0,0,1,810.352,217.932)">
            <path d="M0,-49.418L0,-0.001L14.656,14.656L14.656,-49.417L14.656,-49.418L0,-64.074L0,-49.418Z" style="fill:white;fill-rule:nonzero;"/>
        </g>
        <g transform="matrix(-0.707131,0.707083,0.707083,0.707131,815.532,230.443)">
            <path d="M-5.182,-12.51L15.545,-12.51L5.181,-2.146L-5.183,8.217L-5.182,-12.51Z" style="fill:white;fill-rule:nonzero;"/>
        </g>
        <g transform="matrix(1,0,0,1,919.661,153.768)">
            <path d="M0,0.091L0.09,0.091L0.09,0L0,0.091Z" style="fill:white;fill-rule:nonzero;"/>
        </g>
        <g transform="matrix(1,0,0,1,919.75,217.933)">
            <path d="M0,-49.42L0,-64.075L-0.089,-64.075L-14.656,-49.508L-14.656,14.655L0,0.008L0,-49.42Z" style="fill:white;fill-rule:nonzero;"/>
        </g>
        <g transform="matrix(1,0,0,1,919.661,168.514)">
            <path d="M0,-14.656L-14.567,-14.656L-94.653,-14.656L-109.311,-14.656L-94.653,0L-14.656,-0.001L-14.567,-0.089L0,-14.656Z" style="fill:white;fill-rule:nonzero;"/>
        </g>
        <g transform="matrix(1,0,0,1,825.007,139.2)">
            <path d="M0,14.658L94.654,14.658L94.743,14.569L80.176,0L80.087,0L0,0.001L-14.656,14.658L0,14.658Z" style="fill:white;fill-rule:nonzero;"/>
        </g>
        <g transform="matrix(1,0,0,1,934.406,232.587)">
            <path d="M0,-157.463L-14.656,-142.805L-14.656,-14.646L0,0L0,-157.463Z" style="fill:white;fill-rule:nonzero;"/>
        </g>
        <g transform="matrix(1,0,0,1,905.095,153.768)">
            <path d="M0,-78.644L0,-14.656L0.089,-14.568L14.656,0L14.656,-14.568L14.656,-63.986L0,-78.644Z" style="fill:white;fill-rule:nonzero;"/>
        </g>
    </g>
</svg>
