{
  "zeedhi_project": {
    "name": "zeedhi_hello_world",
    "label": "Zeedhi Hello World",
    "showMenu": true,
    "showSearch": true,
    "showHeader": true,
    "componentMessages": "component/messages.html",
    "showHistoryLastItems": false,
    "mainWindow": "home",
    "logLevel" : "DEBUG",
    "usePostData": false,
    "groupMenu": [
      {
        "label"      : "Menus",
        "isVisible"  : true,
        "menus" : [
          {
            "label"      : "Home",
            "isVisible"  : true,
            "windowName" : "home"
          }
        ]
      }
    ]
  }
}