{
    "name" : "home",
    "label" : "Hello World",
    "showMenu"   : true,
    "showHeader" : true,
    "showFooter" : true,
    "footer": "component/footer.html",
    "template": "container/window.html",
    "widgets": [
        {
            "name": "hello_world",
            "label": "Hello World",
            "isVisible": true,
            "template": "widget/form.html",
            "fields": [
                {
                    "name": "name",
                    "label": "Name",
                    "isVisible": true,
                    "template": "field/text-edit.html",
                    "showOnView": true
                }
            ],
            "actions": [
                {
                    "name": "say_hi_button",
                    "label": "Hello",
                    "showAsAction": "never",
                    "events": [
                        {
                            "name": "ActionEvent",
                            "code": "HelloWorldController.clickSayHiButton(args.owner.widget)"
                        }
                    ]
                }
            ],
            "events" : []
        }
    ]
}