<svg width="34" height="49" viewBox="0 0 34 49" fill="none" xmlns="http://www.w3.org/2000/svg">
<path d="M23.9605 20.1122V19.202C23.9605 19.0364 23.8257 18.9022 23.6594 18.9022H14.4835C9.93525 18.9022 6.24805 22.5736 6.24805 27.1028V29.095V31.9397C6.24805 32.8529 6.99157 33.5934 7.90883 33.5934H10.0463C13.7126 33.5934 16.6848 30.6338 16.6848 26.9831V24.5983C16.6848 24.5983 18.7992 24.5983 19.4545 24.5983C21.9425 24.598 23.9605 22.5897 23.9605 20.1122Z" fill="#D7875F"/>
<path d="M20.1594 13.1897C20.7656 10.9021 22.0953 6.4777 22.9649 4.32088C22.1563 3.76899 21.7428 2.75254 22.0109 1.75597C22.351 0.4925 23.6551 -0.257193 24.9238 0.0812581L29.6689 1.34733C30.9378 1.68592 31.6907 2.98448 31.3506 4.24795C31.0825 5.24452 30.2139 5.91882 29.2365 5.99422C28.9067 8.29511 27.8366 12.7887 27.2129 15.0717C28.6195 17.5439 29.5756 20.6229 28.837 23.3675L22.2273 47.9304C22.0203 48.6999 21.2258 49.1567 20.4529 48.9505L9.00194 45.8953C8.22909 45.6891 7.77039 44.898 7.97744 44.1283L14.5871 19.5653C15.3258 16.8207 17.6998 14.6303 20.1594 13.1897Z" fill="#75DC5E"/>
<path d="M29.6688 1.34743L27.4915 0.766479C28.4695 1.02734 28.9865 2.26312 28.6465 3.52645C28.3783 4.52303 27.6568 5.23653 26.8841 5.36648C26.4923 7.65093 25.3925 12.1366 24.7708 14.4201C25.7343 16.7742 26.3087 19.7511 25.5701 22.4958L18.9604 47.0586C18.7534 47.8282 18.1025 48.3233 17.5068 48.1643L20.4527 48.9503C21.2256 49.1566 22.02 48.6999 22.2272 47.9302L28.8369 23.3673C29.5755 20.6227 28.6194 17.5437 27.2127 15.0715C27.8365 12.7886 28.9065 8.29493 29.2364 5.99404C30.2138 5.91864 31.0823 5.24434 31.3505 4.24777C31.6905 2.98457 30.9375 1.68601 29.6688 1.34743Z" fill="#2AAD52"/>
<path d="M16.4643 41.0843C20.4148 42.1383 24.4755 39.8038 25.5341 35.87L26.7112 31.4957C27.7697 27.5619 25.4252 23.5184 21.4747 22.4643C17.5241 21.4102 13.4635 23.7447 12.4048 27.6785L11.2278 32.0529C10.1693 35.9868 12.5137 40.0303 16.4643 41.0843Z" fill="#D2F5FF"/>
<path d="M25.0067 24.5947L20.5928 40.998C22.6539 40.3535 24.3919 38.8245 25.2409 36.7361L26.892 30.5998C27.2055 28.3685 26.4681 26.1791 25.0067 24.5947Z" fill="#9CC9D3"/>
<path d="M30.7024 28.297C32.171 28.297 33.3617 27.1114 33.3617 25.6491C33.3617 24.1866 32.171 23.0011 30.7024 23.0011H28.2365C28.0393 23.0011 12.705 23.0011 12.705 23.0011C11.9058 23.0011 11.1727 23.2829 10.6004 23.7522V19.8696C8.0323 21.2392 6.27887 23.9245 6.24844 27.021H0V40.1801H4.6832V40.5659C4.6832 42.5646 6.31053 44.1851 8.31781 44.1851H24.5034H25.7363C27.2049 44.1851 28.3956 42.9995 28.3956 41.5371C28.3956 40.0747 27.2049 38.8891 25.7363 38.8891H26.7848C28.2535 38.8891 29.4441 37.7035 29.4441 36.2411C29.4441 34.7788 28.2535 33.5931 26.7848 33.5931H28.1638C29.6324 33.5931 30.823 32.4075 30.823 30.9452C30.823 29.4828 29.6324 28.2972 28.1638 28.2972C28.1855 28.2972 28.2092 28.2972 28.2365 28.2972H30.7024V28.297V28.297Z" fill="#D7875F"/>
<path d="M25.6727 41.3398H24.5036H10.9031C8.89587 41.3398 7.26854 39.7193 7.26854 37.7206C7.26854 37.5076 7.09508 37.3348 6.88115 37.3348H0V40.1802H4.6832V40.566C4.6832 42.5647 6.31053 44.1851 8.31781 44.1851H24.5034H25.7365C27.2051 44.1851 28.3957 42.9995 28.3957 41.5372C28.3957 41.0091 28.2388 40.5184 27.9712 40.1052C27.4832 40.8504 26.6258 41.3398 25.6727 41.3398Z" fill="#B05A3D"/>
</svg>
