<svg width="55" height="42" viewBox="0 0 55 42" fill="none" xmlns="http://www.w3.org/2000/svg">
<path d="M54.9973 11.1651L27.2465 0L0.00878906 10.6572V13.1646L27.7593 23.1287L54.9993 13.6725L54.9973 11.1651V11.1651Z" fill="#333333"/>
<path d="M54.9968 13.6725L27.7552 23.1287L0 13.1645L27.2418 2.50728L54.9968 13.6725Z" fill="black"/>
<path d="M46.7133 27.7654L46.7409 16.1933H46.7651C46.7305 14.0043 38.6713 11.0429 27.8173 11.0429C16.9636 11.0429 8.15792 14.3147 8.12207 16.2108L8.16189 27.7616L46.7132 27.7654H46.7133Z" fill="#333333"/>
<path d="M40.4862 36.8156H38.5854L38.595 4.56477L40.4956 5.31431L40.4862 36.8155V36.8156Z" fill="#CC4331"/>
<path d="M42.334 42H36.5864L37.4706 36.0092H41.4498L42.334 42V42Z" fill="#CC4331"/>
</svg>
