<svg width="51" height="50" viewBox="0 0 51 50" fill="none" xmlns="http://www.w3.org/2000/svg">
<path d="M41.4361 3.04733L37.0398 0C36.1598 0.964713 34.6817 1.1542 33.579 0.389854L11.5498 32.2484C12.6525 33.0128 12.9956 34.4647 12.4036 35.6289L16.7997 38.6763C17.6798 37.7116 19.1579 37.5221 20.2605 38.2864C21.3632 39.0508 21.7064 40.5027 21.1143 41.6669L25.5105 44.7143C26.3905 43.7496 27.8686 43.5601 28.9713 44.3244L51.0005 12.4658C49.8978 11.7014 49.5547 10.2495 50.1467 9.08523L45.7506 6.03791C44.8705 7.00262 43.3924 7.19211 42.2898 6.42776C41.1872 5.66351 40.844 4.2115 41.4361 3.04733Z" fill="#F2CC7B"/>
<path d="M28.184 40.1409L43.2227 18.3909L30.7776 9.76467L15.7389 31.5146L28.184 40.1409Z" fill="#F25F60"/>
<path d="M25.5371 22.2202L29.2264 23.3281L31.4189 20.1573L31.5066 24.0128L35.196 25.1208L31.5608 26.3957L31.6484 30.2512L29.3141 27.1836L25.679 28.4586L27.8715 25.2878L25.5371 22.2202Z" fill="#F2F2F2"/>
<path opacity="0.1" d="M24.5798 44.0694L32.9146 8.50629L30.3098 7.89433L30.5312 5.59121L30.0592 5.48041L11.5498 32.2484C12.6525 33.0128 12.9956 34.4647 12.4036 35.629L16.7998 38.6763C17.6798 37.7116 19.158 37.5221 20.2606 38.2864C21.3633 39.0508 21.7065 40.5027 21.1144 41.667L24.5798 44.0694Z" fill="black"/>
<path d="M17.1244 5.388L11.919 4.16498C11.4531 5.38531 10.147 6.10388 8.84143 5.7971L0 43.5211C1.30558 43.8279 2.15624 45.053 2.03133 46.3536L7.23682 47.5767C7.70269 46.3563 9.00877 45.6378 10.3144 45.9445C11.6199 46.2513 12.4706 47.4764 12.3457 48.777L17.5512 50.0001C18.017 48.7797 19.3231 48.0612 20.6287 48.3679L29.4699 10.644C28.1644 10.3373 27.3137 9.11211 27.4386 7.8115L22.2332 6.58848C21.7673 7.80881 20.4613 8.52738 19.1557 8.2206C17.85 7.91362 16.9995 6.68861 17.1244 5.388Z" fill="#FFD782"/>
<path d="M9.22748 12.5453C9.16253 12.5453 9.09639 12.5378 9.03035 12.5223L7.35672 12.1291C6.89453 12.0206 6.60775 11.5574 6.71633 11.0947C6.8247 10.632 7.28729 10.3448 7.74948 10.4535L9.42311 10.8467C9.8853 10.9552 10.1721 11.4184 10.0635 11.8811C9.97076 12.2776 9.61745 12.5453 9.22748 12.5453Z" fill="#FF6465"/>
<path d="M23.0527 15.7934C22.9877 15.7934 22.9217 15.7859 22.8555 15.7704L19.3992 14.9583C18.937 14.8498 18.6502 14.3867 18.7588 13.9239C18.8672 13.4612 19.3295 13.174 19.792 13.2827L23.2483 14.0948C23.7105 14.2034 23.9973 14.6665 23.8887 15.1293C23.7959 15.5258 23.4427 15.7934 23.0527 15.7934ZM16.1401 14.1693C16.0751 14.1693 16.0091 14.1619 15.9429 14.1464L12.4866 13.3343C12.0244 13.2258 11.7376 12.7626 11.8462 12.2999C11.9546 11.8371 12.417 11.55 12.8794 11.6587L16.3357 12.4708C16.7979 12.5793 17.0847 13.0425 16.9761 13.5052C16.8833 13.9018 16.5301 14.1693 16.1401 14.1693Z" fill="#FF6465"/>
<path d="M28.1835 16.9987C28.1186 16.9987 28.0525 16.9912 27.9864 16.9758L26.3128 16.5825C25.8506 16.474 25.5638 16.0108 25.6724 15.5481C25.7808 15.0854 26.2434 14.7982 26.7055 14.9069L28.3792 15.3001C28.8414 15.4087 29.1281 15.8718 29.0196 16.3346C28.9267 16.7311 28.5736 16.9987 28.1835 16.9987Z" fill="#FF6465"/>
<path d="M18.3678 44.7647L24.4053 19.011L9.66927 15.5479L3.63182 41.3016L18.3678 44.7647Z" fill="#FF6465"/>
<path d="M9.34668 29.0594L13.1848 28.7371L14.0649 24.9827L15.557 28.5379L19.3953 28.2156L16.4793 30.7352L17.9715 34.2906L14.6771 32.2925L11.7611 34.8121L12.6411 31.0576L9.34668 29.0594Z" fill="white"/>
<path d="M31.7831 6.87014C31.6142 6.87014 31.4438 6.82058 31.2946 6.71705L29.8811 5.73728C29.4908 5.46671 29.3934 4.93054 29.6637 4.53979C29.9339 4.14894 30.4695 4.0515 30.8597 4.32208L32.2732 5.30185C32.6635 5.57242 32.7608 6.10859 32.4906 6.49934C32.3237 6.74069 32.0556 6.87014 31.7831 6.87014Z" fill="#F25F60"/>
<path d="M43.4584 14.9634C43.2896 14.9634 43.1191 14.9138 42.9699 14.8104L40.051 12.787C39.6606 12.5164 39.5633 11.9802 39.8335 11.5896C40.1038 11.1987 40.6393 11.1013 41.0295 11.3719L43.9485 13.3952C44.3389 13.6658 44.4362 14.202 44.1659 14.5926C43.999 14.8339 43.7309 14.9634 43.4584 14.9634ZM37.6206 10.9167C37.4518 10.9167 37.2813 10.867 37.1321 10.7636L34.2132 8.74023C33.8228 8.46966 33.7255 7.9335 33.9957 7.54284C34.266 7.15199 34.8016 7.05455 35.1917 7.32513L38.1107 9.3485C38.501 9.61908 38.5984 10.1552 38.3281 10.546C38.1612 10.7872 37.8931 10.9167 37.6206 10.9167Z" fill="#F25F60"/>
<path d="M47.7909 17.9666C47.622 17.9666 47.4516 17.9169 47.3024 17.8135L45.8889 16.8337C45.4986 16.5631 45.4013 16.027 45.6715 15.6362C45.9417 15.2454 46.4773 15.1479 46.8675 15.4185L48.281 16.3983C48.6713 16.6689 48.7686 17.205 48.4984 17.5958C48.3316 17.837 48.0634 17.9666 47.7909 17.9666Z" fill="#F25F60"/>
</svg>
