<?xml version="1.0" encoding="UTF-8" standalone="no"?>
<!DOCTYPE svg PUBLIC "-//W3C//DTD SVG 1.1//EN" "http://www.w3.org/Graphics/SVG/1.1/DTD/svg11.dtd">
<svg width="100%" height="100%" viewBox="0 0 237 21" version="1.1" xmlns="http://www.w3.org/2000/svg" xmlns:xlink="http://www.w3.org/1999/xlink" xml:space="preserve" xmlns:serif="http://www.serif.com/" style="fill-rule:evenodd;clip-rule:evenodd;stroke-linejoin:round;stroke-miterlimit:1.41421;">
    <g transform="matrix(1,0,0,1,-7.13897,-45.0462)">
        <g transform="matrix(1.34351,0,0,1.34351,31.2375,53.4414)">
            <path d="M0,6.58C-0.115,6.439 -0.171,6.184 -0.171,5.815L-0.171,0.891C-0.171,0.055 -0.459,-0.619 -1.04,-1.136C-1.622,-1.653 -2.378,-1.91 -3.312,-1.91C-3.991,-1.91 -4.575,-1.818 -5.063,-1.635C-5.551,-1.452 -6.029,-1.134 -6.496,-0.68C-6.568,-0.624 -6.634,-0.56 -6.698,-0.488C-6.762,-0.416 -6.828,-0.34 -6.899,-0.255C-7.239,-0.836 -7.655,-1.256 -8.152,-1.519C-8.648,-1.78 -9.255,-1.91 -9.978,-1.91C-10.331,-1.91 -10.649,-1.881 -10.933,-1.826C-11.216,-1.771 -11.493,-1.678 -11.76,-1.55C-12.015,-1.437 -12.273,-1.282 -12.535,-1.082C-12.798,-0.885 -13.085,-0.65 -13.395,-0.383L-13.338,-1.499C-13.334,-1.573 -13.393,-1.635 -13.467,-1.635L-17.809,-1.635C-17.88,-1.635 -17.937,-1.577 -17.937,-1.506L-17.937,0.11L-17.046,0.133C-16.763,0.133 -16.566,0.198 -16.452,0.334C-16.337,0.469 -16.282,0.706 -16.282,1.048L-16.282,5.855C-16.282,6.211 -16.337,6.458 -16.452,6.601C-16.566,6.741 -16.763,6.806 -17.046,6.792L-17.937,6.792L-17.937,8.361C-17.937,8.433 -17.88,8.49 -17.809,8.49L-11.996,8.49C-11.924,8.49 -11.867,8.433 -11.867,8.361L-11.867,6.792L-12.376,6.792C-12.66,6.792 -12.856,6.721 -12.971,6.58C-13.085,6.439 -13.14,6.184 -13.14,5.815L-13.14,2.42C-13.14,1.6 -12.983,0.989 -12.673,0.594C-12.363,0.198 -11.888,0 -11.251,0C-10.742,0 -10.373,0.145 -10.147,0.437C-9.921,0.726 -9.808,1.199 -9.808,1.851L-9.808,5.855C-9.808,6.338 -9.914,6.616 -10.125,6.696C-10.315,6.766 -10.588,6.798 -10.947,6.795C-11.019,6.794 -11.082,6.85 -11.082,6.922L-11.082,8.361C-11.082,8.433 -11.023,8.49 -10.953,8.49L-5.521,8.49C-5.45,8.49 -5.392,8.433 -5.392,8.361L-5.392,6.792L-5.881,6.792C-6.178,6.792 -6.382,6.721 -6.496,6.58C-6.61,6.439 -6.666,6.184 -6.666,5.815L-6.666,2.42C-6.666,1.613 -6.51,1.008 -6.199,0.603C-5.889,0.201 -5.421,0 -4.797,0C-4.246,0 -3.861,0.137 -3.642,0.413C-3.42,0.692 -3.312,1.17 -3.312,1.851L-3.312,5.855C-3.312,6.309 -3.407,6.582 -3.599,6.676C-3.77,6.759 -4.04,6.797 -4.409,6.794C-4.479,6.794 -4.543,6.85 -4.543,6.921L-4.543,8.361C-4.543,8.433 -4.485,8.49 -4.414,8.49L1.377,8.49C1.448,8.49 1.506,8.433 1.506,8.361L1.506,6.792L0.616,6.792C0.317,6.792 0.114,6.721 0,6.58" style="fill:rgb(10,75,160);fill-rule:nonzero;"/>
        </g>
        <g transform="matrix(1.34351,0,0,1.34351,41.1268,53.8108)">
            <path d="M0,6.305C-0.114,6.164 -0.17,5.909 -0.17,5.54L-0.17,-1.781C-0.17,-1.852 -0.228,-1.91 -0.299,-1.91L-4.86,-1.91C-4.931,-1.91 -4.989,-1.852 -4.989,-1.781L-4.989,-0.148L-4.075,-0.148C-3.792,-0.148 -3.596,-0.082 -3.481,0.053C-3.367,0.189 -3.312,0.428 -3.312,0.767L-3.312,5.58C-3.312,5.936 -3.367,6.183 -3.481,6.326C-3.596,6.466 -3.792,6.531 -4.075,6.517L-4.989,6.517L-4.989,8.086C-4.989,8.158 -4.931,8.215 -4.86,8.215L1.357,8.215C1.429,8.215 1.486,8.158 1.486,8.086L1.486,6.517L0.595,6.517C0.311,6.517 0.114,6.446 0,6.305" style="fill:rgb(10,75,160);fill-rule:nonzero;"/>
        </g>
        <g transform="matrix(1.34351,0,0,1.34351,38.6177,45.1707)">
            <path d="M0,3.566C0.496,3.566 0.915,3.394 1.263,3.045C1.61,2.698 1.783,2.279 1.783,1.783C1.783,1.287 1.61,0.87 1.263,0.531C0.915,0.191 0.496,0.013 0,0L0,0.021C-0.481,0.021 -0.9,0.191 -1.252,0.531C-1.606,0.87 -1.784,1.287 -1.784,1.783C-1.784,2.263 -1.606,2.682 -1.252,3.036C-0.9,3.388 -0.481,3.566 0,3.566" style="fill:rgb(10,75,160);fill-rule:nonzero;"/>
        </g>
        <g transform="matrix(1.34351,0,0,1.34351,59.9583,53.4414)">
            <path d="M0,6.58C-0.115,6.439 -0.171,6.184 -0.171,5.815L-0.171,1.082C-0.171,0.135 -0.468,-0.603 -1.062,-1.126C-1.656,-1.649 -2.476,-1.91 -3.524,-1.91C-3.962,-1.91 -4.355,-1.865 -4.703,-1.773C-5.05,-1.681 -5.384,-1.528 -5.711,-1.316C-5.923,-1.176 -6.137,-1 -6.357,-0.797C-6.578,-0.592 -6.807,-0.354 -7.047,-0.085L-6.989,-1.501C-6.987,-1.574 -7.045,-1.635 -7.118,-1.635L-11.461,-1.635C-11.532,-1.635 -11.59,-1.577 -11.59,-1.506L-11.59,0.11L-10.741,0.133C-10.458,0.133 -10.261,0.198 -10.147,0.334C-10.033,0.469 -9.977,0.706 -9.977,1.048L-9.977,5.855C-9.977,6.211 -10.033,6.458 -10.147,6.601C-10.261,6.741 -10.458,6.806 -10.741,6.792L-11.59,6.792L-11.59,8.361C-11.59,8.433 -11.532,8.49 -11.461,8.49L-5.67,8.49C-5.599,8.49 -5.541,8.433 -5.541,8.361L-5.541,6.792L-6.071,6.792C-6.355,6.792 -6.552,6.721 -6.666,6.58C-6.781,6.439 -6.836,6.184 -6.836,5.815L-6.836,2.632C-6.836,1.754 -6.677,1.111 -6.357,0.7C-6.04,0.289 -5.532,0.084 -4.84,0.084C-4.289,0.084 -3.896,0.241 -3.662,0.554C-3.429,0.864 -3.312,1.384 -3.312,2.106L-3.312,5.855C-3.312,6.211 -3.368,6.458 -3.481,6.601C-3.596,6.741 -3.792,6.806 -4.076,6.792L-4.649,6.792L-4.649,8.361C-4.649,8.433 -4.592,8.49 -4.521,8.49L1.377,8.49C1.449,8.49 1.506,8.433 1.506,8.361L1.506,6.792L0.614,6.792C0.318,6.792 0.114,6.721 0,6.58" style="fill:rgb(10,75,160);fill-rule:nonzero;"/>
        </g>
        <g transform="matrix(1.34351,0,0,1.34351,78.1305,56.3498)">
            <path d="M0,2.589L-1.165,2.589C-1.236,2.589 -1.294,2.648 -1.294,2.719L-1.294,3.821C-1.294,4.173 -1.327,4.423 -1.399,4.564C-1.471,4.704 -1.599,4.775 -1.782,4.775C-1.938,4.775 -2.047,4.722 -2.111,4.616C-2.175,4.511 -2.207,4.322 -2.207,4.054L-2.207,-0.637C-2.207,-1.868 -2.575,-2.752 -3.311,-3.291C-4.045,-3.828 -5.276,-4.098 -7.004,-4.098C-8.333,-4.098 -9.371,-3.866 -10.114,-3.408C-10.857,-2.948 -11.228,-2.301 -11.228,-1.465C-11.228,-0.927 -11.071,-0.481 -10.761,-0.128C-10.45,0.227 -10.053,0.403 -9.572,0.403C-9.092,0.403 -8.702,0.265 -8.405,-0.011C-8.107,-0.287 -7.959,-0.65 -7.959,-1.104C-7.959,-1.388 -8.042,-1.624 -8.203,-1.814C-8.365,-2.006 -8.617,-2.165 -8.957,-2.293C-8.858,-2.335 -8.769,-2.375 -8.691,-2.409C-8.614,-2.444 -8.541,-2.471 -8.468,-2.483C-8.37,-2.513 -8.259,-2.528 -8.14,-2.537C-8.02,-2.545 -7.866,-2.548 -7.683,-2.548C-6.906,-2.548 -6.314,-2.407 -5.911,-2.123C-5.507,-1.839 -5.306,-1.43 -5.306,-0.891C-5.306,-0.34 -5.55,0.039 -6.038,0.243C-6.527,0.449 -7.097,0.623 -7.747,0.764C-7.86,0.777 -7.978,0.799 -8.097,0.827C-8.217,0.857 -8.333,0.884 -8.447,0.913C-9.241,1.096 -9.965,1.38 -10.623,1.762C-11.281,2.144 -11.61,2.858 -11.61,3.905C-11.61,4.768 -11.333,5.447 -10.782,5.943C-10.23,6.44 -9.479,6.687 -8.532,6.687C-7.866,6.687 -7.258,6.562 -6.707,6.316C-6.208,6.092 -5.762,5.761 -5.367,5.323C-5.306,5.256 -5.202,5.272 -5.161,5.353C-4.94,5.787 -4.642,6.111 -4.266,6.325C-3.841,6.567 -3.268,6.687 -2.546,6.687C-1.625,6.687 -0.951,6.455 -0.519,5.996C-0.087,5.537 0.128,4.804 0.128,3.8L0.128,2.719C0.128,2.648 0.071,2.589 0,2.589M-5.349,3.184C-5.349,3.579 -5.539,3.938 -5.921,4.255C-6.304,4.574 -6.742,4.734 -7.237,4.734C-7.606,4.734 -7.898,4.624 -8.118,4.404C-8.338,4.184 -8.447,3.897 -8.447,3.544C-8.447,3.077 -8.3,2.76 -8.012,2.589C-7.723,2.42 -7.394,2.284 -7.025,2.187C-7.012,2.187 -6.996,2.184 -6.982,2.175C-6.969,2.168 -6.953,2.165 -6.94,2.165C-6.826,2.136 -6.72,2.104 -6.622,2.069C-6.524,2.035 -6.423,1.995 -6.325,1.952C-6.24,1.924 -6.157,1.898 -6.081,1.868C-6.003,1.839 -5.921,1.812 -5.837,1.782C-5.751,1.753 -5.67,1.727 -5.593,1.698C-5.515,1.669 -5.433,1.635 -5.349,1.591L-5.349,3.184Z" style="fill:rgb(10,75,160);fill-rule:nonzero;"/>
        </g>
        <g transform="matrix(1.34351,0,0,1.34351,90.5836,58.5474)">
            <path d="M0,-0.66C-0.701,-1.127 -1.468,-1.458 -2.303,-1.657C-2.516,-1.713 -2.73,-1.764 -2.951,-1.806C-3.171,-1.848 -3.378,-1.89 -3.577,-1.932C-4.159,-2.047 -4.648,-2.184 -5.053,-2.347C-5.455,-2.509 -5.658,-2.774 -5.658,-3.142C-5.658,-3.411 -5.512,-3.629 -5.223,-3.791C-4.933,-3.953 -4.562,-4.034 -4.108,-4.034C-3.356,-4.034 -2.72,-3.846 -2.197,-3.473C-1.695,-3.112 -1.315,-2.598 -1.061,-1.931C-1.042,-1.882 -0.997,-1.848 -0.944,-1.848L0.54,-1.848C0.611,-1.848 0.669,-1.906 0.669,-1.977L0.669,-5.285C0.669,-5.356 0.611,-5.414 0.54,-5.414L-0.839,-5.414L-1.03,-4.629C-1.497,-5.012 -1.988,-5.287 -2.505,-5.457C-3.022,-5.627 -3.628,-5.711 -4.32,-5.711C-5.623,-5.711 -6.633,-5.417 -7.355,-4.83C-8.078,-4.244 -8.438,-3.418 -8.438,-2.357C-8.438,-1.297 -8.09,-0.546 -7.398,-0.107C-6.706,0.33 -5.946,0.649 -5.126,0.848C-4.928,0.891 -4.734,0.933 -4.542,0.975C-4.352,1.018 -4.164,1.06 -3.981,1.102C-3.386,1.23 -2.877,1.381 -2.452,1.559C-2.027,1.736 -1.815,2.015 -1.815,2.397C-1.815,2.695 -1.964,2.93 -2.261,3.109C-2.558,3.285 -2.954,3.373 -3.45,3.373C-4.354,3.373 -5.074,3.168 -5.604,2.758C-6.116,2.361 -6.513,1.76 -6.795,0.955C-6.812,0.904 -6.86,0.869 -6.914,0.869L-8.31,0.869C-8.38,0.869 -8.438,0.927 -8.438,0.998L-8.438,4.561C-8.438,4.632 -8.38,4.69 -8.31,4.69L-6.927,4.69C-6.867,4.69 -6.815,4.648 -6.801,4.589L-6.633,3.84C-6.562,3.911 -6.489,3.976 -6.411,4.031C-6.333,4.087 -6.26,4.146 -6.187,4.201C-5.75,4.512 -5.294,4.733 -4.818,4.86C-4.344,4.986 -3.768,5.051 -3.089,5.051C-1.786,5.051 -0.772,4.762 -0.042,4.18C0.687,3.599 1.051,2.792 1.051,1.76C1.051,0.613 0.7,-0.193 0,-0.66" style="fill:rgb(10,75,160);fill-rule:nonzero;"/>
        </g>
        <g transform="matrix(1.34351,0,0,1.34351,108.354,52.5431)">
            <path d="M0,4.979L-1.25,4.979C-1.301,4.979 -1.342,5.02 -1.342,5.071L-1.342,6.625C-1.342,7.052 -1.396,7.361 -1.502,7.544C-1.609,7.729 -1.782,7.823 -2.026,7.823C-2.253,7.823 -2.413,7.74 -2.507,7.577C-2.601,7.415 -2.646,7.13 -2.646,6.732L-2.646,0.923C-2.646,0.873 -2.604,0.833 -2.555,0.833L-0.15,0.833C-0.1,0.833 -0.06,0.791 -0.06,0.741L-0.06,-0.83C-0.06,-0.879 -0.1,-0.92 -0.15,-0.92L-2.555,-0.92C-2.604,-0.92 -2.646,-0.961 -2.646,-1.012L-2.646,-4.505C-2.646,-4.556 -2.687,-4.597 -2.738,-4.596L-4.481,-4.577C-4.53,-4.576 -4.568,-4.535 -4.569,-4.486C-4.581,-3.501 -4.784,-2.697 -5.179,-2.075C-5.575,-1.448 -6.268,-1.012 -7.257,-0.766C-7.297,-0.756 -7.327,-0.721 -7.327,-0.679L-7.327,0.741C-7.327,0.791 -7.286,0.833 -7.235,0.833L-5.9,0.833C-5.85,0.833 -5.809,0.873 -5.809,0.923L-5.809,6.903C-5.809,7.788 -5.542,8.453 -5.007,8.902C-4.474,9.35 -3.701,9.576 -2.688,9.576C-1.777,9.576 -1.085,9.347 -0.615,8.891C-0.145,8.435 0.091,7.766 0.091,6.881L0.091,5.071C0.091,5.02 0.05,4.979 0,4.979" style="fill:rgb(10,75,160);fill-rule:nonzero;"/>
        </g>
        <g transform="matrix(1.34351,0,0,1.34351,116.463,65.4083)">
            <path d="M0,-10.838C-1.594,-10.838 -2.883,-10.354 -3.858,-9.385C-4.833,-8.414 -5.322,-7.14 -5.322,-5.559C-5.322,-3.763 -4.833,-2.387 -3.858,-1.433C-2.883,-0.48 -1.476,0 0.364,0C1.676,0 2.767,-0.354 3.635,-1.059C4.476,-1.742 4.979,-2.65 5.139,-3.782C5.146,-3.838 5.101,-3.891 5.044,-3.89L3.164,-3.87C3.125,-3.869 3.092,-3.843 3.08,-3.806C2.879,-3.167 2.57,-2.681 2.149,-2.342C1.713,-1.992 1.176,-1.817 0.534,-1.817C-0.265,-1.817 -0.876,-2.085 -1.304,-2.619C-1.718,-3.137 -1.971,-3.918 -2.064,-4.963C-2.07,-5.017 -2.026,-5.067 -1.973,-5.067L5.28,-5.067L5.28,-5.194C5.28,-5.238 5.288,-5.273 5.302,-5.302L5.302,-5.376L5.302,-5.43C5.302,-7.132 4.834,-8.46 3.901,-9.411C2.97,-10.362 1.667,-10.838 0,-10.838M1.935,-6.692L-1.952,-6.692C-2.006,-6.692 -2.049,-6.74 -2.045,-6.793C-1.991,-7.534 -1.799,-8.105 -1.464,-8.502C-1.114,-8.919 -0.633,-9.129 -0.021,-9.129C0.677,-9.129 1.194,-8.874 1.528,-8.369C1.845,-7.891 2.013,-7.363 2.03,-6.789C2.031,-6.736 1.987,-6.692 1.935,-6.692" style="fill:rgb(10,75,160);fill-rule:nonzero;"/>
        </g>
        <g transform="matrix(1.34351,0,0,1.34351,114.13,45.0462)">
            <path d="M0,3.398C0.03,3.398 0.058,3.383 0.075,3.359L1.319,1.561C1.355,1.508 1.433,1.508 1.47,1.561L2.736,3.36C2.753,3.384 2.78,3.398 2.811,3.398L5.098,3.398C5.169,3.398 5.213,3.319 5.175,3.258L3.132,0.043C3.115,0.016 3.086,0 3.055,0L0.461,0C0.43,0 0.401,0.016 0.385,0.042L-1.699,3.257C-1.738,3.318 -1.694,3.398 -1.622,3.398L0,3.398Z" style="fill:rgb(10,75,160);fill-rule:nonzero;"/>
        </g>
        <g transform="matrix(1.34351,0,0,1.34351,139.981,53.4319)">
            <path d="M0,6.626C-0.115,6.484 -0.172,6.229 -0.172,5.856L-0.172,1.09C-0.172,0.136 -0.471,-0.605 -1.069,-1.133C-1.669,-1.659 -2.494,-1.924 -3.549,-1.924C-3.99,-1.924 -4.386,-1.878 -4.735,-1.785C-5.086,-1.692 -5.423,-1.539 -5.751,-1.325C-5.965,-1.184 -6.181,-1.008 -6.402,-0.802C-6.625,-0.597 -6.854,-0.355 -7.098,-0.086L-7.038,-1.551C-7.035,-1.603 -7.076,-1.646 -7.129,-1.646L-11.581,-1.646C-11.631,-1.646 -11.672,-1.605 -11.672,-1.555L-11.672,0.112L-10.816,0.134C-10.531,0.134 -10.334,0.2 -10.219,0.336C-10.104,0.473 -10.048,0.711 -10.048,1.055L-10.048,5.897C-10.048,6.255 -10.104,6.504 -10.219,6.647C-10.334,6.789 -10.531,6.853 -10.816,6.84L-11.672,6.84L-11.672,8.458C-11.672,8.509 -11.631,8.55 -11.581,8.55L-5.672,8.55C-5.621,8.55 -5.58,8.509 -5.58,8.458L-5.58,6.84L-6.113,6.84C-6.4,6.84 -6.598,6.768 -6.714,6.626C-6.828,6.484 -6.884,6.229 -6.884,5.856L-6.884,2.65C-6.884,1.766 -6.724,1.119 -6.402,0.705C-6.083,0.291 -5.572,0.086 -4.874,0.086C-4.318,0.086 -3.923,0.243 -3.688,0.558C-3.453,0.87 -3.335,1.395 -3.335,2.121L-3.335,5.897C-3.335,6.255 -3.392,6.504 -3.507,6.647C-3.621,6.789 -3.819,6.853 -4.105,6.84L-4.682,6.84L-4.682,8.458C-4.682,8.509 -4.641,8.55 -4.59,8.55L1.426,8.55C1.477,8.55 1.518,8.509 1.518,8.458L1.518,6.84L0.619,6.84C0.32,6.84 0.114,6.768 0,6.626" style="fill:rgb(10,75,160);fill-rule:nonzero;"/>
        </g>
        <g transform="matrix(1.34351,0,0,1.34351,149.673,53.8054)">
            <path d="M0,6.348C-0.114,6.206 -0.171,5.951 -0.171,5.578L-0.171,-1.833C-0.171,-1.883 -0.211,-1.924 -0.262,-1.924L-4.932,-1.924C-4.981,-1.924 -5.022,-1.883 -5.022,-1.833L-5.022,-0.15L-4.104,-0.15C-3.818,-0.15 -3.62,-0.083 -3.505,0.054C-3.39,0.19 -3.334,0.43 -3.334,0.772L-3.334,5.619C-3.334,5.977 -3.39,6.226 -3.505,6.369C-3.62,6.511 -3.818,6.575 -4.104,6.562L-5.022,6.562L-5.022,8.18C-5.022,8.231 -4.981,8.272 -4.932,8.272L1.406,8.272C1.457,8.272 1.497,8.231 1.497,8.18L1.497,6.562L0.6,6.562C0.313,6.562 0.115,6.49 0,6.348" style="fill:rgb(10,75,160);fill-rule:nonzero;"/>
        </g>
        <g transform="matrix(1.34351,0,0,1.34351,147.146,45.103)">
            <path d="M0,3.591C0.5,3.591 0.923,3.418 1.272,3.068C1.622,2.718 1.796,2.296 1.796,1.795C1.796,1.297 1.622,0.877 1.272,0.534C0.923,0.193 0.5,0.014 0,0L0,0.022C-0.483,0.022 -0.905,0.193 -1.262,0.534C-1.616,0.877 -1.796,1.297 -1.796,1.795C-1.796,2.279 -1.616,2.702 -1.262,3.057C-0.905,3.413 -0.483,3.591 0,3.591" style="fill:rgb(10,75,160);fill-rule:nonzero;"/>
        </g>
        <g transform="matrix(1.34351,0,0,1.34351,163.835,58.5724)">
            <path d="M0,-0.663C-0.706,-1.133 -1.478,-1.467 -2.319,-1.667C-2.533,-1.724 -2.75,-1.774 -2.972,-1.816C-3.193,-1.859 -3.401,-1.902 -3.603,-1.945C-4.187,-2.06 -4.682,-2.199 -5.087,-2.362C-5.493,-2.525 -5.697,-2.792 -5.697,-3.163C-5.697,-3.434 -5.55,-3.653 -5.259,-3.815C-4.967,-3.978 -4.594,-4.061 -4.137,-4.061C-3.381,-4.061 -2.739,-3.872 -2.212,-3.494C-1.701,-3.129 -1.315,-2.602 -1.059,-1.918C-1.046,-1.884 -1.014,-1.859 -0.977,-1.859L0.582,-1.859C0.633,-1.859 0.673,-1.9 0.673,-1.951L0.673,-5.359C0.673,-5.41 0.633,-5.451 0.582,-5.451L-0.845,-5.451L-1.037,-4.66C-1.508,-5.045 -2.002,-5.322 -2.523,-5.493C-3.044,-5.665 -3.653,-5.75 -4.351,-5.75C-5.662,-5.75 -6.68,-5.453 -7.407,-4.863C-8.134,-4.272 -8.498,-3.441 -8.498,-2.373C-8.498,-1.304 -8.147,-0.548 -7.45,-0.106C-6.753,0.334 -5.988,0.654 -5.163,0.856C-4.963,0.898 -4.768,0.941 -4.575,0.983C-4.383,1.026 -4.193,1.068 -4.008,1.111C-3.41,1.24 -2.897,1.392 -2.469,1.571C-2.042,1.75 -1.828,2.03 -1.828,2.415C-1.828,2.715 -1.978,2.953 -2.276,3.131C-2.576,3.311 -2.975,3.399 -3.474,3.399C-4.385,3.399 -5.108,3.192 -5.644,2.779C-6.165,2.374 -6.567,1.762 -6.852,0.938C-6.864,0.901 -6.897,0.876 -6.936,0.876L-8.406,0.876C-8.456,0.876 -8.498,0.917 -8.498,0.967L-8.498,4.632C-8.498,4.683 -8.456,4.724 -8.406,4.724L-6.945,4.724C-6.902,4.724 -6.866,4.694 -6.856,4.652L-6.68,3.868C-6.608,3.941 -6.534,4.005 -6.456,4.061C-6.379,4.116 -6.304,4.176 -6.231,4.232C-5.791,4.545 -5.331,4.767 -4.853,4.895C-4.375,5.023 -3.795,5.087 -3.11,5.087C-1.798,5.087 -0.777,4.796 -0.043,4.21C0.691,3.625 1.058,2.814 1.058,1.774C1.058,0.62 0.705,-0.192 0,-0.663" style="fill:rgb(10,75,160);fill-rule:nonzero;"/>
        </g>
        <g transform="matrix(1.34351,0,0,1.34351,241.735,63.4908)">
            <path d="M0,-7.984C-0.933,-8.935 -2.234,-9.411 -3.901,-9.411C-5.496,-9.411 -6.784,-8.926 -7.76,-7.958C-8.735,-6.987 -9.224,-5.713 -9.224,-4.131C-9.224,-2.336 -8.735,-0.96 -7.76,-0.005C-6.784,0.948 -5.377,1.427 -3.538,1.427C-2.227,1.427 -1.136,1.074 -0.268,0.369C0.574,-0.315 1.077,-1.222 1.236,-2.355C1.244,-2.411 1.199,-2.463 1.143,-2.463L-0.738,-2.443C-0.776,-2.442 -0.811,-2.416 -0.821,-2.379C-1.022,-1.74 -1.331,-1.254 -1.753,-0.915C-2.188,-0.565 -2.726,-0.39 -3.367,-0.39C-4.166,-0.39 -4.777,-0.658 -5.205,-1.192C-5.619,-1.71 -5.873,-2.491 -5.967,-3.536C-5.972,-3.589 -5.929,-3.639 -5.874,-3.639L1.378,-3.639L1.378,-3.767C1.378,-3.811 1.387,-3.845 1.399,-3.875L1.399,-3.949L1.399,-4.003C1.399,-5.705 0.933,-7.033 0,-7.984M-1.967,-5.263L-5.854,-5.263C-5.907,-5.263 -5.951,-5.313 -5.947,-5.366C-5.894,-6.107 -5.7,-6.676 -5.366,-7.075C-5.017,-7.492 -4.534,-7.702 -3.923,-7.702C-3.226,-7.702 -2.707,-7.447 -2.373,-6.942C-2.057,-6.464 -1.889,-5.936 -1.872,-5.362C-1.87,-5.309 -1.914,-5.263 -1.967,-5.263" style="fill:rgb(10,75,160);fill-rule:nonzero;"/>
        </g>
        <g transform="matrix(1.34351,0,0,1.34351,185.868,56.6783)">
            <path d="M0,2.158L-1.996,2.158L-1.996,2.179C-2.052,2.92 -2.297,3.526 -2.733,3.996C-3.169,4.467 -3.698,4.701 -4.327,4.701C-5.082,4.701 -5.676,4.381 -6.11,3.74C-6.547,3.098 -6.763,2.209 -6.763,1.068C-6.763,-0.445 -6.345,-1.535 -5.503,-2.209C-5.187,-2.463 -4.784,-2.596 -4.379,-2.62C-4.189,-2.632 -4.036,-2.636 -3.92,-2.619C-3.864,-2.612 -3.806,-2.61 -3.749,-2.61C-3.62,-2.579 -3.489,-2.536 -3.354,-2.481C-3.217,-2.425 -3.058,-2.345 -2.873,-2.245C-3.03,-2.105 -3.158,-1.976 -3.258,-1.862C-3.356,-1.746 -3.437,-1.633 -3.492,-1.519C-3.535,-1.433 -3.567,-1.337 -3.589,-1.23C-3.61,-1.123 -3.62,-1.006 -3.62,-0.877C-3.62,-0.437 -3.469,-0.072 -3.161,0.213C-2.854,0.499 -2.458,0.64 -1.975,0.64C-1.461,0.64 -1.048,0.48 -0.734,0.159C-0.422,-0.161 -0.265,-0.587 -0.265,-1.113C-0.265,-2.066 -0.66,-2.844 -1.451,-3.443C-2.241,-4.04 -3.271,-4.34 -4.539,-4.34C-6.25,-4.34 -7.609,-3.856 -8.622,-2.887C-9.636,-1.916 -10.14,-0.613 -10.14,1.025C-10.14,2.748 -9.67,4.093 -8.729,5.054C-7.788,6.016 -6.471,6.498 -4.775,6.498C-3.42,6.498 -2.295,6.101 -1.397,5.31C-0.522,4.541 -0.026,3.523 0.091,2.258C0.096,2.206 0.053,2.158 0,2.158" style="fill:rgb(10,75,160);fill-rule:nonzero;"/>
        </g>
        <g transform="matrix(1.34351,0,0,1.34351,195.044,48.0618)">
            <path d="M0,10.837L-0.874,10.837C-1.144,10.837 -1.336,10.765 -1.451,10.623C-1.566,10.482 -1.621,10.225 -1.621,9.854L-1.621,-1.623C-1.621,-1.671 -1.661,-1.71 -1.71,-1.71L-6.387,-1.71C-6.436,-1.71 -6.475,-1.671 -6.475,-1.623L-6.475,0.064L-5.576,0.064C-5.277,0.064 -5.072,0.131 -4.957,0.267C-4.842,0.403 -4.786,0.641 -4.786,0.986L-4.786,9.895C-4.786,10.252 -4.842,10.501 -4.957,10.645C-5.072,10.786 -5.277,10.851 -5.576,10.837L-6.475,10.837L-6.475,12.459C-6.475,12.508 -6.436,12.547 -6.387,12.547L0,12.547C0.049,12.547 0.088,12.508 0.088,12.459L0.088,10.925C0.088,10.876 0.049,10.837 0,10.837" style="fill:rgb(10,75,160);fill-rule:nonzero;"/>
        </g>
        <g transform="matrix(1.34351,0,0,1.34351,210.37,54.2945)">
            <path d="M0,5.984C-0.114,5.842 -0.17,5.587 -0.17,5.214L-0.17,-2.165C-0.17,-2.233 -0.225,-2.288 -0.293,-2.288L-4.879,-2.288C-4.946,-2.288 -5.002,-2.233 -5.002,-2.165L-5.002,-0.514L-4.104,-0.514C-3.817,-0.514 -3.62,-0.447 -3.505,-0.31C-3.391,-0.174 -3.335,0.072 -3.335,0.427L-3.335,3.675C-3.335,4.531 -3.486,5.172 -3.793,5.599C-4.101,6.027 -4.565,6.241 -5.193,6.241C-5.806,6.241 -6.229,6.084 -6.455,5.771C-6.683,5.458 -6.797,4.873 -6.797,4.018L-6.797,-2.165C-6.797,-2.233 -6.852,-2.288 -6.92,-2.288L-11.441,-2.288C-11.51,-2.288 -11.564,-2.233 -11.564,-2.165L-11.564,-0.514L-10.73,-0.514C-10.444,-0.514 -10.247,-0.447 -10.132,-0.31C-10.017,-0.174 -9.96,0.072 -9.96,0.427L-9.96,5.15C-9.96,6.176 -9.68,6.954 -9.116,7.48C-8.553,8.006 -7.729,8.272 -6.647,8.272C-6.147,8.272 -5.707,8.207 -5.321,8.079C-4.937,7.951 -4.565,7.737 -4.211,7.438C-4.069,7.309 -3.925,7.171 -3.782,7.021C-3.641,6.872 -3.492,6.698 -3.335,6.497L-3.335,7.785C-3.335,7.853 -3.279,7.908 -3.212,7.908L1.417,7.908C1.484,7.908 1.54,7.853 1.54,7.785L1.54,6.176L0.6,6.198C0.312,6.198 0.115,6.126 0,5.984" style="fill:rgb(10,75,160);fill-rule:nonzero;"/>
        </g>
        <g transform="matrix(1.34351,0,0,1.34351,222.646,60.3526)">
            <path d="M0,-7.075C-0.513,-7.075 -0.959,-7.021 -1.336,-6.915C-1.713,-6.807 -2.073,-6.618 -2.415,-6.348C-2.544,-6.25 -2.674,-6.135 -2.811,-6.007C-2.947,-5.878 -3.086,-5.742 -3.228,-5.6L-3.228,-10.734C-3.228,-10.792 -3.274,-10.838 -3.331,-10.838L-7.935,-10.838C-7.992,-10.838 -8.038,-10.792 -8.038,-10.734L-8.038,-9.085L-7.161,-9.085C-6.875,-9.085 -6.678,-9.017 -6.562,-8.882C-6.447,-8.745 -6.391,-8.5 -6.391,-8.144L-6.391,3.296C-6.391,3.353 -6.345,3.399 -6.288,3.399L-4.367,3.399C-4.325,3.399 -4.287,3.372 -4.271,3.332L-3.74,1.946C-3.411,2.557 -2.972,3.014 -2.415,3.313C-1.86,3.613 -1.188,3.763 -0.405,3.763C1.018,3.763 2.148,3.283 2.982,2.33C3.815,1.376 4.232,0.077 4.232,-1.56L4.232,-1.731L4.232,-1.902C4.19,-3.198 3.851,-4.385 3.218,-5.461C2.584,-6.539 1.51,-7.075 0,-7.075M0.321,0.941C-0.034,1.552 -0.548,1.86 -1.218,1.86C-1.873,1.86 -2.38,1.569 -2.735,0.984C-3.091,0.401 -3.27,-0.443 -3.271,-1.55L-3.271,-1.539L-3.271,-1.56L-3.271,-1.55C-3.27,-2.648 -3.084,-3.499 -2.714,-4.101C-2.38,-4.644 -1.779,-5.008 -1.143,-5.042C-0.512,-5.076 -0.018,-4.775 0.342,-4.136C0.684,-3.529 0.855,-2.707 0.855,-1.667C0.855,-0.543 0.676,0.329 0.321,0.941" style="fill:rgb(10,75,160);fill-rule:nonzero;"/>
        </g>
    </g>
</svg>
