<?xml version="1.0" encoding="UTF-8" standalone="no"?>
<!DOCTYPE svg PUBLIC "-//W3C//DTD SVG 1.1//EN" "http://www.w3.org/Graphics/SVG/1.1/DTD/svg11.dtd">
<svg width="100%" height="100%" viewBox="0 0 907 307" version="1.1" xmlns="http://www.w3.org/2000/svg" xmlns:xlink="http://www.w3.org/1999/xlink" xml:space="preserve" xmlns:serif="http://www.serif.com/" style="fill-rule:evenodd;clip-rule:evenodd;stroke-linejoin:round;stroke-miterlimit:1.41421;">
    <g transform="matrix(1,0,0,1,-86.5964,-62.5296)">
        <g>
            <path d="M331.494,112.755C331.494,120.967 329.616,127.584 325.858,132.605C322.101,137.626 317.014,140.136 310.596,140.136C304.046,140.136 298.892,138.058 295.135,133.902L295.135,159.887L285.908,159.887L285.908,85.173L294.337,85.173L294.786,91.158C298.543,86.503 303.763,84.176 310.447,84.176C316.931,84.176 322.06,86.62 325.833,91.507C329.607,96.395 331.494,103.195 331.494,111.907L331.494,112.755ZM322.267,111.707C322.267,105.622 320.971,100.818 318.377,97.293C315.784,93.768 312.226,92.006 307.704,92.006C302.118,92.006 297.928,94.483 295.135,99.438L295.135,125.223C297.895,130.145 302.118,132.605 307.803,132.605C312.226,132.605 315.742,130.851 318.352,127.343C320.962,123.835 322.267,118.623 322.267,111.707Z" style="fill:rgb(128,138,144);fill-rule:nonzero;"/>
            <path d="M340.771,111.657C340.771,106.37 341.81,101.616 343.889,97.393C345.967,93.17 348.859,89.911 352.567,87.617C356.274,85.323 360.505,84.176 365.26,84.176C372.609,84.176 378.552,86.719 383.091,91.807C387.63,96.894 389.899,103.66 389.899,112.106L389.899,112.755C389.899,118.008 388.893,122.721 386.881,126.894C384.87,131.067 381.994,134.317 378.253,136.645C374.512,138.973 370.215,140.136 365.36,140.136C358.045,140.136 352.118,137.593 347.579,132.505C343.041,127.418 340.771,120.685 340.771,112.306L340.771,111.657ZM350.048,112.755C350.048,118.74 351.436,123.544 354.213,127.169C356.989,130.793 360.705,132.605 365.36,132.605C370.048,132.605 373.772,130.768 376.532,127.094C379.292,123.42 380.672,118.274 380.672,111.657C380.672,105.739 379.267,100.942 376.457,97.268C373.648,93.594 369.915,91.757 365.26,91.757C360.705,91.757 357.031,93.569 354.238,97.193C351.445,100.818 350.048,106.005 350.048,112.755Z" style="fill:rgb(128,138,144);fill-rule:nonzero;"/>
            <path d="M449.251,126.42L459.625,85.173L468.852,85.173L453.141,139.139L445.66,139.139L432.543,98.241L419.775,139.139L412.293,139.139L396.632,85.173L405.809,85.173L416.433,125.573L429.002,85.173L436.433,85.173L449.251,126.42Z" style="fill:rgb(128,138,144);fill-rule:nonzero;"/>
            <path d="M500.623,140.136C493.308,140.136 487.356,137.734 482.768,132.929C478.179,128.125 475.885,121.699 475.885,113.652L475.885,111.956C475.885,106.603 476.907,101.823 478.952,97.617C480.997,93.411 483.857,90.119 487.531,87.742C491.205,85.364 495.187,84.176 499.476,84.176C506.492,84.176 511.945,86.487 515.835,91.108C519.726,95.73 521.671,102.347 521.671,110.959L521.671,114.799L485.112,114.799C485.245,120.12 486.799,124.417 489.775,127.692C492.751,130.967 496.533,132.605 501.122,132.605C504.38,132.605 507.14,131.94 509.401,130.61C511.662,129.28 513.641,127.518 515.337,125.323L520.972,129.712C516.45,136.662 509.667,140.136 500.623,140.136ZM499.476,91.757C495.752,91.757 492.626,93.112 490.099,95.822C487.572,98.532 486.01,102.33 485.411,107.218L512.444,107.218L512.444,106.52C512.178,101.832 510.914,98.199 508.653,95.622C506.392,93.045 503.333,91.757 499.476,91.757Z" style="fill:rgb(128,138,144);fill-rule:nonzero;"/>
            <path d="M558.429,93.453C557.033,93.22 555.52,93.103 553.89,93.103C547.839,93.103 543.732,95.68 541.571,100.834L541.571,139.139L532.344,139.139L532.344,85.173L541.322,85.173L541.471,91.408C544.497,86.586 548.787,84.176 554.339,84.176C556.135,84.176 557.498,84.408 558.429,84.874L558.429,93.453Z" style="fill:rgb(128,138,144);fill-rule:nonzero;"/>
            <path d="M588.355,140.136C581.04,140.136 575.088,137.734 570.499,132.929C565.911,128.125 563.616,121.699 563.616,113.652L563.616,111.956C563.616,106.603 564.639,101.823 566.684,97.617C568.729,93.411 571.588,90.119 575.262,87.742C578.936,85.364 582.918,84.176 587.208,84.176C594.223,84.176 599.676,86.487 603.567,91.108C607.457,95.73 609.402,102.347 609.402,110.959L609.402,114.799L572.843,114.799C572.976,120.12 574.531,124.417 577.507,127.692C580.483,130.967 584.265,132.605 588.853,132.605C592.112,132.605 594.872,131.94 597.133,130.61C599.394,129.28 601.372,127.518 603.068,125.323L608.704,129.712C604.182,136.662 597.399,140.136 588.355,140.136ZM587.208,91.757C583.483,91.757 580.358,93.112 577.831,95.822C575.304,98.532 573.741,102.33 573.143,107.218L600.175,107.218L600.175,106.52C599.909,101.832 598.646,98.199 596.385,95.622C594.124,93.045 591.065,91.757 587.208,91.757Z" style="fill:rgb(128,138,144);fill-rule:nonzero;"/>
            <path d="M617.831,111.707C617.831,103.428 619.793,96.769 623.717,91.732C627.64,86.694 632.777,84.176 639.128,84.176C645.446,84.176 650.45,86.337 654.141,90.66L654.141,62.53L663.368,62.53L663.368,139.139L654.889,139.139L654.44,133.353C650.749,137.875 645.612,140.136 639.028,140.136C632.777,140.136 627.682,137.576 623.742,132.455C619.801,127.335 617.831,120.652 617.831,112.405L617.831,111.707ZM627.058,112.755C627.058,118.873 628.322,123.661 630.849,127.119C633.376,130.577 636.867,132.306 641.323,132.306C647.175,132.306 651.448,129.679 654.141,124.425L654.141,99.637C651.381,94.55 647.142,92.006 641.422,92.006C636.9,92.006 633.376,93.752 630.849,97.243C628.322,100.734 627.058,105.905 627.058,112.755Z" style="fill:rgb(128,138,144);fill-rule:nonzero;"/>
            <path d="M748.655,112.755C748.655,121.001 746.76,127.626 742.97,132.63C739.179,137.634 734.092,140.136 727.708,140.136C720.891,140.136 715.621,137.726 711.897,132.904L711.448,139.139L702.969,139.139L702.969,62.53L712.196,62.53L712.196,91.108C715.92,86.487 721.057,84.176 727.608,84.176C734.158,84.176 739.304,86.653 743.044,91.607C746.785,96.562 748.655,103.345 748.655,111.956L748.655,112.755ZM739.428,111.707C739.428,105.423 738.215,100.568 735.787,97.143C733.36,93.719 729.869,92.006 725.314,92.006C719.229,92.006 714.856,94.832 712.196,100.485L712.196,123.827C715.023,129.48 719.428,132.306 725.413,132.306C729.836,132.306 733.277,130.593 735.738,127.169C738.198,123.744 739.428,118.59 739.428,111.707Z" style="fill:rgb(128,138,144);fill-rule:nonzero;"/>
            <path d="M777.384,125.622L789.953,85.173L799.828,85.173L778.132,147.468C774.774,156.446 769.437,160.935 762.122,160.935L760.376,160.785L756.935,160.137L756.935,152.655L759.429,152.855C762.554,152.855 764.99,152.223 766.735,150.959C768.481,149.696 769.919,147.385 771.05,144.027L773.095,138.54L753.842,85.173L763.917,85.173L777.384,125.622Z" style="fill:rgb(128,138,144);fill-rule:nonzero;"/>
            <g transform="matrix(0,1,1,0,305.879,218.86)">
                <path d="M-7.331,-21.982L21.982,-21.982L7.322,-7.331L-7.331,-21.982Z" style="fill:rgb(130,143,255);fill-rule:nonzero;"/>
            </g>
            <g transform="matrix(-0.707107,-0.707107,-0.707107,0.707107,286.044,349.155)">
                <path d="M-12.51,-5.182L8.217,-5.182L-12.51,15.545L-12.511,-5.169L-12.51,-5.182Z" style="fill:rgb(130,143,255);fill-rule:nonzero;"/>
            </g>
            <g transform="matrix(1,0,0,1,298.545,354.337)">
                <path d="M0,0.01L0.018,0.01L0.008,0L0,0.01Z" style="fill:rgb(84,227,232);fill-rule:nonzero;"/>
            </g>
            <g transform="matrix(1,0,0,1,400.047,339.691)">
                <path d="M0,-34.773C-6.245,-14.636 -25.017,-0.011 -47.208,-0.011L-108.479,-0.011L-116.149,-0.011L-101.493,14.646L-101.484,14.656L-47.208,14.656C-31.706,14.656 -17.49,9.149 -6.408,-0.011C4.205,-8.784 11.93,-20.918 15.173,-34.773C16.276,-39.482 16.878,-44.384 16.878,-49.429L0,-34.773Z" style="fill:rgb(133,8,255);fill-rule:nonzero;"/>
            </g>
            <g transform="matrix(1,0,0,1,415.22,240.837)">
                <path d="M0,34.769C-3.244,20.912 -10.967,8.778 -21.581,0.005C-32.632,-9.127 -46.796,-14.622 -62.242,-14.656L-62.38,-14.656L-108.108,-14.656L-116.671,-14.656L-131.321,0.005L-62.38,0.005C-40.191,0.005 -21.417,14.632 -15.172,34.769L1.704,49.425C1.704,44.38 1.104,39.477 0,34.769" style="fill:rgb(84,227,232);fill-rule:nonzero;"/>
            </g>
            <g transform="matrix(1,0,0,1,400.047,290.262)">
                <path d="M0,-14.656L-59.021,-14.656L-59.021,-14.655L-44.364,0L16.878,0L0,-14.656Z" style="fill:rgb(133,8,255);fill-rule:nonzero;"/>
            </g>
            <g transform="matrix(1,0,0,1,402.258,304.918)">
                <path d="M0,-14.656L-46.575,-14.656L-46.575,-14.655L-61.232,-0.001L-61.232,0L-2.211,0L14.667,-14.656L0,-14.656Z" style="fill:rgb(84,227,232);fill-rule:nonzero;"/>
            </g>
            <g transform="matrix(0,1,1,0,363.01,282.934)">
                <path d="M-7.328,-21.984L21.984,-21.984L7.328,-7.328L7.327,-7.328L-7.328,-21.984Z" style="fill:rgb(130,143,255);fill-rule:nonzero;"/>
            </g>
            <g transform="matrix(1,0,0,1,415.22,354.335)">
                <path d="M0,-49.417C-3.244,-35.562 -10.967,-23.428 -21.581,-14.655C-32.663,-5.495 -46.878,0.012 -62.38,0.012L-108.104,0.012L-116.657,0.012L-116.675,0.012L-131.321,14.656L-62.38,14.656C-37.618,14.656 -15.541,3.218 -1.107,-14.655C6.884,-24.551 12.519,-36.418 14.968,-49.417C15.862,-54.168 16.351,-59.063 16.351,-64.073L1.704,-64.073C1.704,-59.028 1.104,-54.126 0,-49.417" style="fill:rgb(84,227,232);fill-rule:nonzero;"/>
            </g>
            <g transform="matrix(1,0,0,1,414.112,260.951)">
                <path d="M0,-20.109C-14.433,-37.981 -36.512,-49.421 -61.272,-49.421L-130.214,-49.421L-115.563,-34.769L-61.134,-34.769C-45.687,-34.737 -31.523,-29.242 -20.473,-20.109C-9.86,-11.338 -2.135,0.796 1.108,14.655C2.211,19.364 2.813,24.265 2.813,29.312L17.458,29.312C17.458,24.3 16.97,19.406 16.075,14.655C13.627,1.657 7.992,-10.213 0,-20.109" style="fill:rgb(133,8,255);fill-rule:nonzero;"/>
            </g>
            <g transform="matrix(1,0,0,1,89.8457,240.842)">
                <path d="M0,-29.312L0,0L14.656,-14.654L0,-29.312Z" style="fill:rgb(130,143,255);fill-rule:nonzero;"/>
            </g>
            <g transform="matrix(1,0,0,1,239.883,354.338)">
                <path d="M0,-0.046L0.044,0L0.091,-0.046L0,-0.046Z" style="fill:rgb(84,227,232);fill-rule:nonzero;"/>
            </g>
            <g transform="matrix(-0.699294,0.714834,0.714834,0.699294,252.38,349.16)">
                <path d="M12.344,-5.28L12.408,-5.28L12.635,15.443L-8.318,-5.054L12.344,-5.28Z" style="fill:rgb(133,8,255);fill-rule:nonzero;"/>
            </g>
            <g transform="matrix(1,0,0,1,225.514,226.219)">
                <path d="M0,-0.032L-0.028,0L0.043,-0.032L0,-0.032Z" style="fill:rgb(84,227,232);fill-rule:nonzero;"/>
            </g>
            <g transform="matrix(1,0,0,1,89.8457,226.188)">
                <path d="M0,-14.658L14.656,0L135.711,0L167.14,-14.658L0,-14.658Z" style="fill:rgb(158,61,255);fill-rule:nonzero;"/>
            </g>
            <g transform="matrix(1,0,0,1,206.426,240.843)">
                <path d="M0,-14.657L-101.924,-14.657L-116.58,0L-12.298,0L19.061,-14.623L19.088,-14.657L0,-14.657Z" style="fill:rgb(84,227,232);fill-rule:nonzero;"/>
            </g>
            <g transform="matrix(1,0,0,1,118.027,354.365)">
                <path d="M0,-0.073L-0.06,0L0.095,-0.073L0,-0.073Z" style="fill:rgb(84,227,232);fill-rule:nonzero;"/>
            </g>
            <g transform="matrix(1,0,0,1,149.456,354.291)">
                <path d="M0,-14.611L-31.335,0L90.517,0L105.129,-14.611L0,-14.611Z" style="fill:rgb(158,61,255);fill-rule:nonzero;"/>
            </g>
            <g transform="matrix(1,0,0,1,194.127,354.37)">
                <path d="M0,-113.528L-82.935,-14.689L-107.531,14.622L-76.162,-0.005L-76.1,-0.078L-63.841,-14.689L19.09,-113.528L31.36,-128.15L0,-113.528Z" style="fill:rgb(130,143,255);fill-rule:nonzero;"/>
            </g>
            <g transform="matrix(1,0,0,1,225.557,339.635)">
                <path d="M0,-113.448L-0.069,-113.416L-12.339,-98.793L-95.27,0.045L-107.529,14.658L-107.436,14.658L-76.1,0.045L6.835,-98.793L31.43,-128.106L0,-113.448Z" style="fill:rgb(133,8,255);fill-rule:nonzero;"/>
            </g>
            <g transform="matrix(1,0,0,1,137.196,368.992)">
                <path d="M0,-14.7L-19.075,-14.7L-19.23,-14.627L-50.599,0L117.388,0L102.731,-14.654L102.687,-14.7L0,-14.7Z" style="fill:rgb(84,227,232);fill-rule:nonzero;"/>
            </g>
            <g transform="matrix(0.706914,0.7073,0.7073,-0.706914,586.284,221.003)">
                <path d="M2.145,-5.182L22.87,-5.182L12.502,5.18L2.138,15.538L2.145,-5.182Z" style="fill:rgb(130,143,255);fill-rule:nonzero;"/>
            </g>
            <g transform="matrix(0.707131,-0.707083,-0.707083,-0.707131,586.275,359.519)">
                <path d="M2.146,5.182L22.874,5.182L2.148,-15.546L2.146,5.169L2.146,5.182Z" style="fill:rgb(130,143,255);fill-rule:nonzero;"/>
            </g>
            <g transform="matrix(1,0,0,1,584.121,354.338)">
                <path d="M0,0.009L0.017,0.009L0.009,0L0,0.009Z" style="fill:rgb(84,227,232);fill-rule:nonzero;"/>
            </g>
            <g transform="matrix(1,0,0,1,482.636,339.69)">
                <path d="M0,-34.771C6.245,-14.635 25.017,-0.008 47.208,-0.008L116.149,-0.008L101.493,14.646L101.485,14.656L92.93,14.656L47.208,14.656C31.706,14.656 17.49,9.151 6.408,-0.008C-4.207,-8.782 -11.93,-20.916 -15.172,-34.771C-16.276,-39.481 -16.877,-44.382 -16.877,-49.427L0,-34.771Z" style="fill:rgb(133,8,255);fill-rule:nonzero;"/>
            </g>
            <g transform="matrix(1,0,0,1,467.463,240.839)">
                <path d="M0,34.768C3.244,20.912 10.968,8.777 21.581,0.004C32.632,-9.128 46.796,-14.624 62.242,-14.656L116.671,-14.656L131.322,0.004L123.654,0.004L62.38,0.004C40.191,0.004 21.417,14.63 15.173,34.768L-1.704,49.424C-1.704,44.379 -1.104,39.477 0,34.768" style="fill:rgb(84,227,232);fill-rule:nonzero;"/>
            </g>
            <g transform="matrix(1,0,0,1,482.636,290.263)">
                <path d="M0,-14.656L59.021,-14.656L44.364,0L-2.211,0L-16.877,0L0,-14.656Z" style="fill:rgb(133,8,255);fill-rule:nonzero;"/>
            </g>
            <g transform="matrix(1,0,0,1,480.425,304.919)">
                <path d="M0,-14.656L46.576,-14.656L61.232,-0.001L61.232,0L2.211,0L-14.666,-14.656L0,-14.656Z" style="fill:rgb(84,227,232);fill-rule:nonzero;"/>
            </g>
            <g transform="matrix(1,0,0,1,541.657,304.919)">
                <path d="M0,-29.312L0,0L-14.657,-14.656L0,-29.312Z" style="fill:rgb(130,143,255);fill-rule:nonzero;"/>
            </g>
            <g transform="matrix(1,0,0,1,467.463,354.337)">
                <path d="M0,-49.418C3.244,-35.563 10.968,-23.429 21.581,-14.655C32.663,-5.496 46.878,0.009 62.38,0.009L116.675,0.009L131.322,14.656L62.38,14.656C37.62,14.656 15.541,3.217 1.108,-14.655C-6.884,-24.552 -12.519,-36.42 -14.968,-49.418C-15.862,-54.17 -16.35,-59.063 -16.35,-64.074L-1.704,-64.074C-1.704,-59.029 -1.104,-54.128 0,-49.418" style="fill:rgb(84,227,232);fill-rule:nonzero;"/>
            </g>
            <g transform="matrix(1,0,0,1,468.571,260.95)">
                <path d="M0,-20.106C14.433,-37.979 36.512,-49.419 61.272,-49.419L130.214,-49.419L115.563,-34.767L107.001,-34.767L61.272,-34.767L61.134,-34.767C45.688,-34.736 31.524,-29.239 20.473,-20.106C9.86,-11.335 2.136,0.799 -1.108,14.658C-2.211,19.365 -2.813,24.268 -2.813,29.313L-17.458,29.313C-17.458,24.302 -16.97,19.407 -16.075,14.658C-13.627,1.658 -7.992,-10.211 0,-20.106" style="fill:rgb(133,8,255);fill-rule:nonzero;"/>
            </g>
            <g transform="matrix(1,0,0,1,642.709,226.177)">
                <path d="M0,-0.037L0.036,0L0.036,-0.037L0,-0.037Z" style="fill:rgb(84,227,232);fill-rule:nonzero;"/>
            </g>
            <g transform="matrix(-0.707107,0.707107,0.707107,0.707107,647.941,366.842)">
                <path d="M-5.176,-12.517L-5.17,-12.517L15.551,-12.51L-5.175,8.216L-5.176,-12.517Z" style="fill:rgb(84,227,232);fill-rule:nonzero;"/>
            </g>
            <g transform="matrix(1,0,0,1,642.745,354.326)">
                <path d="M0,0.01L0.005,0.005L0,0L0,0.01Z" style="fill:rgb(84,227,232);fill-rule:nonzero;"/>
            </g>
            <g transform="matrix(1,0,0,1,628.099,368.994)">
                <path d="M0,-157.464L0,0L14.647,-14.657L14.647,-14.667L14.647,-17.187L14.647,-29.314L14.647,-73.04L14.647,-84.425L14.647,-128.152L14.647,-140.278L14.647,-142.816L14.61,-142.854L0,-157.464Z" style="fill:rgb(130,143,255);fill-rule:nonzero;"/>
            </g>
            <g transform="matrix(1,0,0,1,644.19,367.547)">
                <path d="M0,-139.926L-1.445,-141.371L-1.445,-13.221L-1.44,-13.215L13.221,1.445L13.221,-6.464L13.221,-27.867L13.221,-33.869L13.221,-41.84L13.221,-112.733L13.221,-126.705L0,-139.926Z" style="fill:rgb(133,8,255);fill-rule:nonzero;"/>
            </g>
            <g transform="matrix(1,0,0,1,697.422,354.335)">
                <path d="M0,0.047L-5.106,-5.058L-14.657,-14.609L-14.657,14.656L-14.611,14.656L-13.426,13.474L-5.106,5.153L0,0.047Z" style="fill:rgb(130,143,255);fill-rule:nonzero;"/>
            </g>
            <g transform="matrix(1,0,0,1,761.543,354.382)">
                <path d="M0,-64.12L-14.701,-64.12C-14.701,-36.827 -36.828,-14.703 -64.122,-14.703L-69.227,-14.703L-78.778,-14.703L-78.778,-14.656L-64.122,0C-48.593,0 -34.358,-5.518 -23.265,-14.703C-9.055,-26.464 0,-44.233 0,-64.12" style="fill:rgb(158,61,255);fill-rule:nonzero;"/>
            </g>
            <g transform="matrix(1,0,0,1,738.278,275.562)">
                <path d="M0,-34.72C-11.095,-43.903 -25.33,-49.421 -40.856,-49.421L-80.868,-49.421L-92.124,-49.421L-95.532,-49.421L-95.532,-49.386L-94.089,-47.941L-80.868,-34.72L-40.856,-34.72C-13.563,-34.72 8.563,-12.593 8.563,14.701L23.265,14.701C23.265,-5.188 14.21,-22.958 0,-34.72" style="fill:rgb(84,227,232);fill-rule:nonzero;"/>
            </g>
            <g transform="matrix(1,0,0,1,738.278,319.575)">
                <path d="M0,20.105C-11.093,29.289 -25.33,34.807 -40.856,34.807L-45.963,39.914L-54.282,48.233L-55.467,49.417L-45.963,49.417L-45.963,49.242C-44.273,49.351 -42.573,49.417 -40.856,49.417C-16.095,49.417 5.982,37.977 20.416,20.105C31.327,6.591 37.874,-10.593 37.874,-29.312L23.265,-29.312C23.265,-9.427 14.21,8.343 0,20.105" style="fill:rgb(84,227,232);fill-rule:nonzero;"/>
            </g>
            <g transform="matrix(1,0,0,1,697.422,290.262)">
                <path d="M0,-78.732L-40.011,-78.732L-69.324,-78.732L-54.712,-64.122L0,-64.122C15.525,-64.122 29.763,-58.602 40.856,-49.419C55.066,-37.657 64.121,-19.887 64.121,0L78.73,0C78.73,-18.722 72.185,-35.906 61.272,-49.419C46.839,-67.293 24.761,-78.732 0,-78.732" style="fill:rgb(158,61,255);fill-rule:nonzero;"/>
            </g>
            <g transform="matrix(0.707324,-0.70689,-0.70689,-0.707324,1021.73,351.244)">
                <path d="M-53.509,28.223L-32.789,28.223L57.805,118.872L57.799,139.599L-53.509,28.223Z" style="fill:rgb(130,143,255);fill-rule:nonzero;"/>
            </g>
            <g transform="matrix(1,0,0,1,963.934,354.46)">
                <path d="M0,14.647L29.312,14.647L14.656,0L0,14.647Z" style="fill:rgb(84,227,232);fill-rule:nonzero;"/>
            </g>
            <g transform="matrix(0,1,1,0,1049.99,283.048)">
                <path d="M-56.746,-71.402L71.413,-71.402L86.059,-56.746L-71.403,-56.746L-56.746,-71.402Z" style="fill:rgb(133,8,255);fill-rule:nonzero;"/>
            </g>
            <g transform="matrix(1,0,0,1,963.934,226.301)">
                <path d="M0,-14.656L14.656,0L29.312,-14.656L0,-14.656Z" style="fill:rgb(158,61,255);fill-rule:nonzero;"/>
            </g>
            <g transform="matrix(1,0,0,1,795.694,226.188)">
                <path d="M0,-14.658L14.656,0L29.312,-14.658L0,-14.658Z" style="fill:rgb(158,61,255);fill-rule:nonzero;"/>
            </g>
            <g transform="matrix(1,0,0,1,905.094,354.347)">
                <path d="M0,14.646L29.312,14.646L14.656,0L0,14.646Z" style="fill:rgb(84,227,232);fill-rule:nonzero;"/>
            </g>
            <g transform="matrix(1,0,0,1,905.095,275.517)">
                <path d="M0,0.088L0.089,0.088L0,0L0,0.088Z" style="fill:rgb(84,227,232);fill-rule:nonzero;"/>
            </g>
            <g transform="matrix(1,0,0,1,905.095,226.188)">
                <path d="M0,-14.658L14.656,0L29.312,-14.658L0,-14.658Z" style="fill:rgb(158,61,255);fill-rule:nonzero;"/>
            </g>
            <g transform="matrix(1,0,0,1,905.005,304.829)">
                <path d="M0,0.089L0.09,0.089L0.09,0L0,0.089Z" style="fill:rgb(84,227,232);fill-rule:nonzero;"/>
            </g>
            <g transform="matrix(1,0,0,1,825.007,290.264)">
                <path d="M0,-78.734L-14.656,-64.076L-14.656,0L0,-14.657L0,-78.734Z" style="fill:rgb(133,8,255);fill-rule:nonzero;"/>
            </g>
            <g transform="matrix(1,0,0,1,795.694,368.994)">
                <path d="M0,-157.464L0,0L14.656,-14.655L14.656,-64.073L14.656,-78.73L14.656,-93.387L14.656,-142.806L0,-157.464Z" style="fill:rgb(130,143,255);fill-rule:nonzero;"/>
            </g>
            <g transform="matrix(1,0,0,1,810.352,354.337)">
                <path d="M0,-49.418L0,-0.001L14.656,14.656L14.656,-49.417L14.656,-49.418L0,-64.074L0,-49.418Z" style="fill:rgb(133,8,255);fill-rule:nonzero;"/>
            </g>
            <g transform="matrix(-0.707131,0.707083,0.707083,0.707131,815.532,366.847)">
                <path d="M-5.182,-12.51L15.545,-12.51L5.181,-2.146L-5.183,8.217L-5.182,-12.51Z" style="fill:rgb(84,227,232);fill-rule:nonzero;"/>
            </g>
            <g transform="matrix(1,0,0,1,919.661,290.173)">
                <path d="M0,0.091L0.09,0.091L0.09,0L0,0.091Z" style="fill:rgb(84,227,232);fill-rule:nonzero;"/>
            </g>
            <g transform="matrix(1,0,0,1,919.75,354.338)">
                <path d="M0,-49.42L0,-64.075L-0.089,-64.075L-14.656,-49.508L-14.656,14.655L0,0.009L0,-49.42Z" style="fill:rgb(130,143,255);fill-rule:nonzero;"/>
            </g>
            <g transform="matrix(1,0,0,1,919.661,304.919)">
                <path d="M0,-14.656L-14.567,-14.656L-94.653,-14.656L-109.311,-14.656L-94.653,0L-14.656,-0.001L-14.567,-0.089L0,-14.656Z" style="fill:rgb(84,227,232);fill-rule:nonzero;"/>
            </g>
            <g transform="matrix(1,0,0,1,825.007,275.606)">
                <path d="M0,14.657L94.654,14.657L94.743,14.568L80.176,0L80.087,0L0,0.001L-14.656,14.657L0,14.657Z" style="fill:rgb(158,61,255);fill-rule:nonzero;"/>
            </g>
            <g transform="matrix(1,0,0,1,934.406,368.994)">
                <path d="M0,-157.464L-14.656,-142.806L-14.656,-14.648L0,0L0,-157.464Z" style="fill:rgb(133,8,255);fill-rule:nonzero;"/>
            </g>
            <g transform="matrix(1,0,0,1,905.095,290.174)">
                <path d="M0,-78.644L0,-14.657L0.089,-14.569L14.656,0L14.656,-14.569L14.656,-63.986L0,-78.644Z" style="fill:rgb(130,143,255);fill-rule:nonzero;"/>
            </g>
        </g>
    </g>
</svg>
