<svg width="70" height="70" viewBox="0 0 70 70" fill="none" xmlns="http://www.w3.org/2000/svg">
<path d="M51.9861 52.171H2.05369V17.3545H10.1408C10.7079 17.3545 11.1677 16.8947 11.1677 16.3277C11.1677 15.7606 10.7079 15.3008 10.1408 15.3008H1.02684C0.459753 15.3008 0 15.7606 0 16.3277V53.1978C0 53.7649 0.459753 54.2247 1.02684 54.2247H9.95807L13.7837 62.4738C14.019 62.9813 14.639 63.2091 15.1472 62.9732L18.8928 61.2362L30.2481 69.3382C30.7037 69.6632 31.3559 69.5535 31.6805 69.0987L42.2931 54.2245H51.9864C52.5535 54.2245 53.0132 53.7648 53.0132 53.1977C53.013 52.6307 52.5532 52.171 51.9861 52.171ZM12.2218 54.2247H29.1309L15.2146 60.6783L12.2218 54.2247ZM30.6049 67.0701L21.0358 60.2425L34.0127 54.2247H39.77L30.6049 67.0701Z" fill="#2D68C4"/>
<path d="M68.9733 15.3008H60.0421L56.2166 7.05154C55.9815 6.54469 55.3609 6.31646 54.8531 6.55209L51.1074 8.2891L39.7523 0.187156C39.2967 -0.137601 38.6445 -0.0283447 38.3199 0.426753L27.7073 15.3009H14.2482C13.6811 15.3009 13.2214 15.7607 13.2214 16.3278C13.2214 16.8949 13.6811 17.3546 14.2482 17.3546H28.2344C28.2347 17.3546 28.2349 17.3548 28.2352 17.3548C28.2356 17.3548 28.236 17.3546 28.2363 17.3546H59.3832C59.3845 17.3546 59.3857 17.3549 59.3871 17.3549C59.3887 17.3549 59.3904 17.3546 59.392 17.3546H67.9463V52.1711H56.0934C55.5261 52.1711 55.0665 52.6309 55.0665 53.1979C55.0665 53.765 55.5261 54.2248 56.0934 54.2248H68.9731C69.5404 54.2248 70 53.765 70 53.1979V16.3276C70.0001 15.7606 69.5405 15.3008 68.9733 15.3008ZM57.7784 15.3008H40.8691L54.7856 8.84715L57.7784 15.3008ZM39.3954 2.45539L48.9645 9.28295L35.9876 15.3009H30.2303L39.3954 2.45539Z" fill="#2D68C4"/>
<path d="M35 44.5756C40.404 44.5756 44.8002 40.1792 44.8002 34.7754C44.8002 29.3716 40.404 24.9752 35 24.9752C29.5962 24.9752 25.1998 29.3715 25.1998 34.7754C25.1998 40.1792 29.5962 44.5756 35 44.5756ZM35 27.0289C39.2714 27.0289 42.7465 30.5039 42.7465 34.7754C42.7465 39.0468 39.2714 42.5219 35 42.5219C30.7286 42.5219 27.2535 39.0468 27.2535 34.7754C27.2535 30.504 30.7286 27.0289 35 27.0289Z" fill="#2D68C4"/>
<path d="M36.7378 34.4494L33.6677 33.4261C33.3366 33.3175 33.1562 32.961 33.2648 32.6299C33.35 32.37 33.5929 32.1946 33.8665 32.1955H36.0015C36.3501 32.1959 36.6325 32.4787 36.6325 32.8273V33.3845H38.331V32.8273C38.3301 31.541 37.2878 30.4984 36.0015 30.497H35.7832V28.7985H34.0847V30.497H33.8665C32.5799 30.4961 31.5362 31.5384 31.5353 32.8249C31.5347 33.8289 32.1774 34.7205 33.1301 35.0371L36.2002 36.0605C36.5313 36.1691 36.7118 36.5256 36.6032 36.8567C36.5179 37.1165 36.2751 37.2919 36.0015 37.2911H33.8665C33.5178 37.2906 33.2355 37.0078 33.2355 36.6592V36.1021H31.5369V36.6592C31.5379 37.9455 32.5801 38.9882 33.8665 38.9896H34.0847V40.6881H35.7832V38.9896H36.0015C37.288 38.9904 38.3318 37.9482 38.3326 36.6616C38.3333 35.6576 37.6906 34.7661 36.7378 34.4494Z" fill="#2D68C4"/>
<path d="M26.3072 49.1923H57.5874C58.1546 49.1923 58.6142 48.7325 58.6142 48.1655C58.6142 45.5804 61.221 43.0433 63.8769 43.0433C64.4441 43.0433 64.9037 42.5835 64.9037 42.0164V27.5081C64.9037 26.941 64.4441 26.4812 63.8769 26.4812C61.221 26.4812 58.6142 23.9441 58.6142 21.3591C58.6142 20.792 58.1546 20.3322 57.5874 20.3322H11.8542C11.2871 20.3322 10.8273 20.792 10.8273 21.3591C10.8273 24.1024 8.62919 26.5086 6.12328 26.5086C5.55619 26.5086 5.09644 26.9684 5.09644 27.5355V41.9888C5.09644 42.5559 5.55619 43.0156 6.12328 43.0156C8.62919 43.0156 10.8273 45.422 10.8273 48.1652C10.8273 48.7323 11.2871 49.192 11.8542 49.192H22.1998C22.7669 49.192 23.2267 48.7323 23.2267 48.1652C23.2267 47.5981 22.7669 47.1383 22.1998 47.1383H12.8046C12.5913 45.6975 11.9382 44.3023 10.9414 43.1983C9.8892 42.0329 8.57005 41.2907 7.14999 41.0486V28.4754C8.56991 28.2333 9.88906 27.4911 10.9414 26.3257C11.9382 25.2218 12.5913 23.8265 12.8046 22.3856H56.651C57.169 25.3371 59.8393 27.9506 62.85 28.4492V41.0746C59.8393 41.5731 57.169 44.1868 56.651 47.1382H26.3072C25.7401 47.1382 25.2804 47.598 25.2804 48.165C25.2804 48.7325 25.7401 49.1923 26.3072 49.1923Z" fill="#2D68C4"/>
</svg>
