<?xml version="1.0" encoding="utf-8"?>
<!-- Generator: Adobe Illustrator 22.0.1, SVG Export Plug-In . SVG Version: 6.00 Build 0)  -->
<svg version="1.1" id="Layer_1" xmlns="http://www.w3.org/2000/svg" xmlns:xlink="http://www.w3.org/1999/xlink" x="0px" y="0px"
	 viewBox="0 0 1080 374.9" style="enable-background:new 0 0 1080 374.9;" xml:space="preserve">
<style type="text/css">
	.st0{fill:#828FFF;}
	.st1{fill:#54E3E8;}
	.st2{fill:#8200FF;}
	.st3{fill:#7AEBED;}
	.st4{fill:#78EBED;}
	.st5{fill:#919EFF;}
	.st6{fill:#9E3DFF;}
	.st7{fill:#A342FF;}
	.st8{fill:#8508FF;}
	.st9{fill:#9E38FF;}
	.st10{fill:#9E3BFF;}
	.st11{fill:#808A90;}
</style>
<polygon class="st0" points="283.9,75.1 283.9,89.8 283.9,104.4 298.5,89.8 "/>
<polygon class="st0" points="298.6,217.9 283.9,203.3 283.9,232.6 298.5,217.9 "/>
<polygon class="st1" points="298.5,217.9 298.6,217.9 298.6,217.9 "/>
<path class="st2" d="M400,168.5c-6.2,20.1-25,34.8-47.2,34.8h-61.3h-7.7l14.7,14.7l0,0h8.6h45.7c15.5,0,29.7-5.5,40.8-14.7
	c10.6-8.8,18.3-20.9,21.6-34.8c1.1-4.7,1.7-9.6,1.7-14.7L400,168.5z"/>
<path class="st3" d="M415.2,139.2c-3.2-13.9-11-26-21.6-34.8c-11.1-9.1-25.2-14.6-40.7-14.7h-0.1h-45.7h-8.6l-14.7,14.7h7.7h61.3
	c22.2,0,41,14.6,47.2,34.8l16.9,14.7C416.9,148.8,416.3,143.9,415.2,139.2"/>
<polygon class="st2" points="400,139.2 341,139.2 341,139.2 355.7,153.9 402.3,153.9 416.9,153.9 "/>
<polygon class="st3" points="402.3,153.9 355.7,153.9 355.7,153.9 341,168.5 341,168.5 400,168.5 416.9,153.9 "/>
<polygon class="st0" points="341,139.2 341,168.5 355.7,153.9 355.7,153.9 "/>
<path class="st4" d="M415.2,168.5c-3.2,13.9-11,26-21.6,34.8c-11.1,9.2-25.3,14.7-40.8,14.7h-45.7h-8.6h0l-14.6,14.6h68.9
	c24.8,0,46.8-11.4,61.3-29.3c8-9.9,13.6-21.8,16.1-34.8c0.9-4.8,1.4-9.6,1.4-14.7h-14.6C416.9,158.9,416.3,163.8,415.2,168.5"/>
<path class="st2" d="M414.1,104.4c-14.4-17.9-36.5-29.3-61.3-29.3h-68.9l14.7,14.7h8.6h45.7h0.1c15.4,0,29.6,5.5,40.7,14.7
	c10.6,8.8,18.3,20.9,21.6,34.8c1.1,4.7,1.7,9.6,1.7,14.7h14.6c0-5-0.5-9.9-1.4-14.7C427.7,126.2,422.1,114.3,414.1,104.4"/>
<polygon class="st5" points="89.8,75.1 89.8,104.4 104.5,89.8 "/>
<polygon class="st1" points="239.9,217.9 239.9,217.9 240,217.9 "/>
<polygon class="st2" points="240,217.9 239.9,217.9 254.6,232.6 254.6,203.3 "/>
<polygon class="st1" points="225.5,89.8 225.5,89.8 225.6,89.8 "/>
<polygon class="st6" points="89.8,75.1 104.5,89.8 206.4,89.8 225.5,89.8 225.6,89.8 257,75.1 "/>
<polygon class="st4" points="206.4,89.8 104.5,89.8 89.8,104.4 194.1,104.4 225.5,89.8 225.5,89.8 "/>
<polygon class="st1" points="118,217.9 118,218 118.1,217.9 "/>
<polygon class="st7" points="149.5,203.3 118.1,217.9 137.2,217.9 239.9,217.9 240,217.9 254.6,203.3 "/>
<polygon class="st0" points="194.1,104.4 111.2,203.3 86.6,232.6 118,218 118,217.9 130.3,203.3 213.2,104.4 225.5,89.8 "/>
<polygon class="st8" points="225.6,89.8 225.5,89.8 213.2,104.4 130.3,203.3 118,217.9 118.1,217.9 149.5,203.3 232.4,104.4 
	257,75.1 "/>
<polygon class="st4" points="137.2,217.9 118.1,217.9 118,218 86.6,232.6 105.7,232.6 124.9,232.6 254.6,232.6 239.9,217.9 
	239.9,217.9 "/>
<polygon class="st0" points="584.1,89.8 598.8,104.4 598.8,89.8 598.8,75.1 "/>
<polygon class="st0" points="584.1,217.9 598.8,203.3 598.8,232.6 584.1,217.9 "/>
<polygon class="st1" points="584.1,217.9 584.1,217.9 584.1,217.9 "/>
<path class="st2" d="M482.6,168.5c6.2,20.1,25,34.8,47.2,34.8h61.3h7.7l-14.7,14.7l0,0h-8.6h-45.7c-15.5,0-29.7-5.5-40.8-14.7
	c-10.6-8.8-18.3-20.9-21.6-34.8c-1.1-4.7-1.7-9.6-1.7-14.7L482.6,168.5z"/>
<path class="st3" d="M467.5,139.2c3.2-13.9,11-26,21.6-34.8c11.1-9.1,25.2-14.6,40.7-14.7h0.1h45.7h8.6l14.7,14.7h-7.7h-61.3
	c-22.2,0-41,14.6-47.2,34.8l-16.9,14.7C465.8,148.8,466.4,143.9,467.5,139.2"/>
<polygon class="st2" points="482.6,139.2 541.7,139.2 527,153.9 480.4,153.9 465.8,153.9 "/>
<polygon class="st3" points="480.4,153.9 527,153.9 541.7,168.5 541.7,168.5 482.6,168.5 465.8,153.9 "/>
<polygon class="st0" points="541.7,139.2 541.7,168.5 527,153.9 "/>
<path class="st4" d="M467.5,168.5c3.2,13.9,11,26,21.6,34.8c11.1,9.2,25.3,14.7,40.8,14.7h45.7h8.6h0l14.6,14.6h-68.9
	c-24.8,0-46.8-11.4-61.3-29.3c-8-9.9-13.6-21.8-16.1-34.8c-0.9-4.8-1.4-9.6-1.4-14.7h14.6C465.8,158.9,466.4,163.8,467.5,168.5"/>
<path class="st2" d="M468.6,104.4c14.4-17.9,36.5-29.3,61.3-29.3h68.9l-14.7,14.7h-8.6h-45.7h-0.1c-15.4,0-29.6,5.5-40.7,14.7
	c-10.6,8.8-18.3,20.9-21.6,34.8c-1.1,4.7-1.7,9.6-1.7,14.7h-14.6c0-5,0.5-9.9,1.4-14.7C454.9,126.2,460.6,114.3,468.6,104.4"/>
<polygon class="st1" points="642.7,89.7 642.7,89.8 642.7,89.7 "/>
<polygon class="st3" points="642.7,217.9 642.7,217.9 628.1,232.6 657.4,232.6 "/>
<polygon class="st1" points="642.7,217.9 642.7,217.9 642.7,217.9 "/>
<polygon class="st0" points="628.1,75.1 628.1,104.4 628.1,107.7 628.1,200.1 628.1,203.3 628.1,232.6 642.7,217.9 642.7,217.9 
	642.7,215.4 642.7,203.3 642.7,159.5 642.7,148.2 642.7,104.4 642.7,92.3 642.7,89.8 642.7,89.7 "/>
<polygon class="st2" points="644.2,91.2 642.7,89.8 642.7,92.3 642.7,104.4 642.7,148.2 642.7,159.6 642.7,203.3 642.7,215.4 
	642.7,217.9 642.8,217.9 657.4,232.6 657.4,224.7 657.4,203.3 657.4,197.3 657.4,189.3 657.4,118.4 657.4,104.4 "/>
<polygon class="st5" points="697.4,218 692.3,212.9 682.8,203.3 682.8,218 682.8,231.2 682.8,232.6 682.8,232.6 684,231.4 
	692.3,223.1 "/>
<path class="st9" d="M761.5,153.9h-14.7c0,27.3-22.1,49.4-49.4,49.4h-5.1h-9.6v0l9.6,9.6l5.1,5.1c15.5,0,29.8-5.5,40.9-14.7
	C752.5,191.5,761.5,173.7,761.5,153.9"/>
<path class="st3" d="M738.3,104.4c-11.1-9.2-25.3-14.7-40.9-14.7h-40h-11.3h-3.4v0l1.4,1.4l13.2,13.2h40c27.3,0,49.4,22.1,49.4,49.4
	h14.7C761.5,134,752.5,116.2,738.3,104.4"/>
<path class="st4" d="M738.3,203.3c-11.1,9.2-25.3,14.7-40.9,14.7l-5.1,5.1l-8.3,8.3l-1.2,1.2h9.5v-0.2c1.7,0.1,3.4,0.2,5.1,0.2
	c24.8,0,46.8-11.4,61.3-29.3c10.9-13.5,17.5-30.7,17.5-49.4h-14.6C761.5,173.7,752.5,191.5,738.3,203.3"/>
<path class="st9" d="M697.4,75.1h-40h-29.3l14.6,14.6h0h3.4h11.3h40c15.5,0,29.8,5.5,40.9,14.7c14.2,11.8,23.3,29.5,23.3,49.4h14.6
	c0-18.7-6.5-35.9-17.5-49.4C744.3,86.6,722.2,75.1,697.4,75.1"/>
<polygon class="st0" points="963.9,232.7 978.6,218.1 978.6,89.9 963.9,75.2 "/>
<polygon class="st1" points="963.9,232.7 978.6,232.7 993.2,232.7 978.6,218.1 "/>
<polygon class="st2" points="978.6,89.9 978.6,218.1 993.2,232.7 993.2,75.2 "/>
<polygon class="st10" points="963.9,75.2 978.6,89.9 993.2,75.2 "/>
<polygon class="st10" points="795.7,75.1 810.4,89.8 825,75.1 "/>
<polygon class="st3" points="905.1,232.6 934.4,232.6 919.8,217.9 "/>
<polygon class="st1" points="905.1,139.2 905.2,139.2 905.1,139.1 "/>
<polygon class="st10" points="905.1,75.1 919.8,89.8 934.4,75.1 "/>
<polygon class="st1" points="905,168.5 905.1,168.5 905.1,168.4 "/>
<polygon class="st2" points="825,75.1 810.4,89.8 810.4,139.2 810.4,153.9 825,139.2 "/>
<polygon class="st0" points="795.7,75.1 795.7,232.6 810.4,217.9 810.4,168.5 810.4,153.9 810.4,139.2 810.4,89.8 "/>
<polygon class="st2" points="810.4,168.5 810.4,217.9 825,232.6 825,168.5 825,168.5 810.4,153.9 "/>
<polygon class="st3" points="810.4,217.9 795.7,232.6 810.4,232.6 825,232.6 "/>
<polygon class="st1" points="919.7,153.9 919.8,153.9 919.8,153.8 "/>
<polygon class="st0" points="919.8,168.5 919.8,153.9 919.7,153.9 905.1,168.4 905.1,168.5 905.1,232.6 919.8,217.9 "/>
<polygon class="st3" points="919.7,153.9 905.1,153.9 825,153.9 810.4,153.9 825,168.5 905,168.5 905.1,168.4 "/>
<polygon class="st6" points="825,153.9 905.1,153.9 919.7,153.9 919.8,153.8 905.2,139.2 905.1,139.2 825,139.2 810.4,153.9 "/>
<polygon class="st2" points="934.4,75.1 919.8,89.8 919.8,139.2 919.8,153.8 919.8,153.9 919.8,168.5 919.8,217.9 934.4,232.6 "/>
<polygon class="st0" points="905.1,75.1 905.1,139.1 905.2,139.2 919.8,153.8 919.8,139.2 919.8,89.8 "/>
<path class="st11" d="M605.8,294.9c2.8,0,5.1,1,6.6,2.9c1.6,1.9,2.4,4.7,2.4,8.2c0,3.5-0.8,6.3-2.4,8.3c-1.6,2-3.8,2.9-6.6,2.9
	c-1.4,0-2.7-0.3-3.9-0.8c-1.2-0.5-2.1-1.3-2.9-2.4h-0.2l-0.7,2.8h-2.4v-30.7h3.3v7.5c0,1.7-0.1,3.2-0.2,4.5h0.2
	C600.5,296,602.8,294.9,605.8,294.9 M605.3,297.6c-2.2,0-3.8,0.6-4.8,1.9c-1,1.3-1.5,3.4-1.5,6.5c0,3,0.5,5.2,1.5,6.5
	c1,1.3,2.6,2,4.9,2c2,0,3.5-0.7,4.5-2.2c1-1.5,1.5-3.6,1.5-6.3c0-2.8-0.5-4.9-1.5-6.3C608.9,298.3,607.4,297.6,605.3,297.6"/>
<path class="st11" d="M617.1,295.2h3.5l4.7,12.3c1,2.8,1.7,4.8,1.9,6.1h0.2c0.2-0.7,0.5-1.8,1.1-3.4c0.5-1.6,2.3-6.6,5.4-15h3.5
	l-9.3,24.6c-0.9,2.4-2,4.2-3.2,5.2c-1.2,1-2.7,1.5-4.5,1.5c-1,0-2-0.1-3-0.3v-2.6c0.7,0.2,1.5,0.2,2.4,0.2c2.3,0,3.9-1.3,4.8-3.8
	l1.2-3.1L617.1,295.2z"/>
<g>
	<path class="st11" d="M971.7,288.8c3.2,0,5.9-2.6,5.9-5.9c0-3.2-2.6-5.9-5.9-5.9c-3.2,0-5.9,2.6-5.9,5.9
		C965.8,286.2,968.5,288.8,971.7,288.8"/>
	<path class="st11" d="M971.7,306.6c3.4,0,6.2-2.8,6.2-6.2c0-3.4-2.8-6.2-6.2-6.2c-3.4,0-6.2,2.8-6.2,6.2
		C965.5,303.8,968.3,306.6,971.7,306.6"/>
	<path class="st11" d="M983.3,265.4c0,3.4,2.8,6.2,6.2,6.2c3.4,0,6.2-2.8,6.2-6.2c0-3.4-2.8-6.2-6.2-6.2
		C986.1,259.2,983.3,262,983.3,265.4"/>
	<path class="st11" d="M965.5,265.4c0,3.4,2.8,6.2,6.2,6.2c3.4,0,6.2-2.8,6.2-6.2c0-3.4-2.8-6.2-6.2-6.2
		C968.3,259.2,965.5,262,965.5,265.4"/>
	<path class="st11" d="M947.7,265.4c0,3.4,2.8,6.2,6.2,6.2c3.4,0,6.2-2.8,6.2-6.2c0-3.4-2.8-6.2-6.2-6.2
		C950.5,259.2,947.7,262,947.7,265.4"/>
	<polygon class="st11" points="756,322.8 756,284.7 764.5,284.7 764.5,300.6 784.5,284.7 796.6,284.7 772.7,302.6 799.5,322.8 
		786.1,322.8 764.5,306 764.5,322.8 	"/>
	<polygon class="st11" points="854.5,322.8 854.5,284.7 863.3,284.7 863.3,322.8 	"/>
	<path class="st11" d="M909.9,294.9h-7.8c0-0.9,0-1.8,0-2.6c0-1.1,0-1.1-0.9-1.1h-22.9c-0.9,0-1.5,0.8-1.5,1.4v5.8
		c0,1.3,1,1.3,1.6,1.3h23h0.6c7.8,0,7.8,4.3,7.8,7.1v9.7c0,2.8,0,6.4-5.8,6.4h-27.3c-6,0-7.8-2-7.8-7.2v-3.5h7.8v2.3
		c0,0.1,0,1.2,1.6,1.2h22.8c0.8,0,0.8,0,0.8-0.8v-7.4c0-0.3-0.5-0.6-0.6-0.7h-24.6c-2.4,0-7.8,0-7.8-5.9v-9.7c0-4.2,2.3-6.5,5.9-6.5
		h27.4c4.1,0,7.6,2.2,7.6,6.5V294.9z"/>
	<polygon class="st11" points="749.8,284.7 749.8,291.1 719.5,291.1 719.5,299.7 737.2,299.7 737.2,306.1 719.5,306.1 719.5,315.8 
		749.8,315.8 749.8,322.8 710.9,322.8 710.9,284.7 	"/>
	<polygon class="st11" points="847.9,284.7 840.1,284.7 840.1,310.4 809,284.7 803.4,284.7 803.4,322.8 811.1,322.8 811.1,297.4 
		842,322.8 847.9,322.8 	"/>
	<polygon class="st11" points="660.6,284.7 704.7,284.7 704.7,291.5 687.1,291.5 687.1,322.8 678.2,322.8 678.2,291.5 660.6,291.5 	
		"/>
	<path class="st11" d="M941.8,284.7h-0.5h-7.8l-21.7,38.1h9l4.6-8.4h24.5l4.5,8.4h9L941.8,284.7z M937.6,307.4l-8.5,0l8.5-15.2
		l0.1-0.2l8.4,15.5L937.6,307.4z"/>
</g>
</svg>
