<?xml version="1.0" encoding="UTF-8" standalone="no"?>
<!DOCTYPE svg PUBLIC "-//W3C//DTD SVG 1.1//EN" "http://www.w3.org/Graphics/SVG/1.1/DTD/svg11.dtd">
<svg width="100%" height="100%" viewBox="0 0 512 512" version="1.1" xmlns="http://www.w3.org/2000/svg" xmlns:xlink="http://www.w3.org/1999/xlink" xml:space="preserve" xmlns:serif="http://www.serif.com/" style="fill-rule:evenodd;clip-rule:evenodd;stroke-linejoin:round;stroke-miterlimit:1.41421;">
    <path d="M446.492,348.874L446.461,348.874C431.738,348.866 423.425,341.226 418.668,323.343C413.804,305.054 413.64,278.531 413.468,250.449C413.261,216.425 413.027,177.863 404.57,143.375C403.57,139.297 399.449,136.801 395.371,137.801C391.297,138.801 388.801,142.918 389.797,146.996C397.832,179.746 398.058,217.359 398.261,250.542C398.441,279.621 398.605,307.085 403.968,327.249C406.3,336.019 409.644,343.226 413.965,348.874L97.11,348.874C101.43,343.226 104.774,336.019 107.106,327.249C112.469,307.085 112.637,279.621 112.813,250.542C113.082,206.148 113.391,155.832 131.555,117.324C152,73.976 192.555,52.902 255.539,52.902C290.129,52.902 318.433,59.402 339.664,72.226C358.074,83.344 371.59,99.144 380.984,120.531C382.672,124.375 387.16,126.125 391.004,124.433C394.847,122.746 396.597,118.261 394.91,114.414C384.359,90.398 368.418,71.824 347.527,59.207C334.191,51.152 318.531,45.344 300.695,41.805C298.898,18.457 279.34,0 255.539,0C231.738,0 212.176,18.461 210.391,41.812C193.375,45.184 178.332,50.617 165.422,58.098C144.649,70.137 128.625,87.883 117.797,110.836C98.203,152.379 97.883,204.48 97.606,250.449C97.434,278.531 97.274,305.054 92.407,323.343C87.649,341.226 79.336,348.866 64.614,348.874L64.582,348.874C40,348.874 20,368.874 20,393.46C20,418.042 40,438.042 64.582,438.042L112.711,438.042C116.91,438.042 120.317,434.636 120.317,430.437C120.317,426.237 116.91,422.835 112.711,422.835L64.582,422.835C48.387,422.835 35.207,409.655 35.207,393.46C35.207,377.265 48.383,364.089 64.579,364.085L446.496,364.085C462.687,364.089 475.863,377.265 475.863,393.46C475.863,409.655 462.683,422.835 446.488,422.835L143.129,422.835C138.93,422.835 135.528,426.237 135.528,430.437C135.528,434.636 138.93,438.042 143.129,438.042L174.344,438.042C178.192,479.464 213.129,511.999 255.539,511.999C297.945,511.999 332.883,479.464 336.73,438.042L446.492,438.042C471.074,438.042 491.074,418.042 491.074,393.46C491.074,368.874 471.074,348.874 446.492,348.874ZM255.539,15.207C270.102,15.207 282.281,25.609 285.043,39.371C275.707,38.269 265.879,37.695 255.539,37.695C245.199,37.695 235.371,38.266 226.039,39.367C228.801,25.605 240.977,15.207 255.539,15.207ZM255.539,496.792C221.524,496.792 193.418,471.058 189.633,438.042L321.441,438.042C317.656,471.058 289.551,496.792 255.539,496.792Z" style="fill:rgb(45,104,196);fill-rule:nonzero;"/>
    <path d="M377.633,47.723C377.769,47.797 391.308,55.523 404.629,73.473C422.472,97.512 431.515,127.543 431.515,162.734C431.515,166.933 434.922,170.34 439.121,170.34C443.32,170.34 446.726,166.933 446.726,162.734C446.726,114.289 430.183,82.133 416.304,63.691C401.054,43.426 385.66,34.781 385.011,34.422C381.344,32.398 376.742,33.726 374.703,37.383C372.664,41.043 373.98,45.668 377.633,47.723Z" style="fill:rgb(45,104,196);fill-rule:nonzero;"/>
    <path d="M435.004,50.512C436.226,51.312 464.972,70.605 464.972,119.144C464.972,123.344 468.378,126.746 472.578,126.746C476.777,126.746 480.179,123.344 480.179,119.144C480.179,61.894 444.714,38.664 443.203,37.703C439.675,35.457 435.011,36.496 432.746,40.016C430.48,43.531 431.5,48.226 435.004,50.512Z" style="fill:rgb(45,104,196);fill-rule:nonzero;"/>
    <path d="M71.95,170.34C76.149,170.34 79.555,166.933 79.555,162.734C79.555,127.543 88.602,97.512 106.442,73.473C119.68,55.637 133.137,47.894 133.434,47.723C137.094,45.687 138.422,41.07 136.395,37.402C134.36,33.726 129.735,32.394 126.059,34.422C125.41,34.781 110.016,43.426 94.766,63.691C80.891,82.133 64.348,114.289 64.348,162.734C64.348,166.933 67.75,170.34 71.95,170.34Z" style="fill:rgb(45,104,196);fill-rule:nonzero;"/>
    <path d="M38.497,126.746C42.696,126.746 46.098,123.344 46.098,119.144C46.098,70.644 74.801,51.34 76.067,50.516C79.582,48.254 80.614,43.57 78.368,40.039C76.114,36.496 71.414,35.453 67.868,37.707C66.36,38.668 30.891,61.894 30.891,119.144C30.891,123.344 34.297,126.746 38.497,126.746Z" style="fill:rgb(45,104,196);fill-rule:nonzero;"/>
</svg>
