{
    "qr_code": {
        "tableName": "BP_ORDER",
        "query" : "SELECT o.ID, o.STATUS, po.QUANTITY, o.QRCODE, p.NAME PRODUCT_NAME, e.NAME EVENT_NAME, e.DATETIME FROM bp_order o JOIN bp_product_order po ON o.id = po.order_id JOIN bp_product p ON po.product_id = p.id JOIN bp_event e ON p.event_id = e.id WHERE STATUS = 'A'",
        "columns": [
            "ID",
            "STATUS",
            "QUANTITY",
            "QRCODE",
            "PRODUCT_NAME",
            "EVENT_NAME",
            "DATETIME"
        ],
        "primaryKeys": ["ID"],
        "sequencialColumn": "ID"
    }
}