<svg width="49" height="49" viewBox="0 0 49 49" fill="none" xmlns="http://www.w3.org/2000/svg">
<path d="M43.1557 34.0666C42.1179 35.1044 40.9936 36.0045 39.807 36.7647C34.1301 40.4071 27.0133 40.8869 20.9563 38.2038C19.2316 37.4406 17.5945 36.4209 16.1001 35.1447C15.6999 34.8038 15.3117 34.4438 14.9336 34.0667C8.17879 27.3107 7.2787 16.9165 12.2345 9.19227C12.9968 8.00565 13.8958 6.88228 14.9336 5.84447C22.7273 -1.94816 35.362 -1.94816 43.1557 5.84447C43.5338 6.2226 43.8928 6.61077 44.2337 7.011C45.5098 8.50435 46.5295 10.1425 47.2929 11.8672C50.5371 19.1892 49.1574 28.064 43.1557 34.0666Z" fill="#F4B74A"/>
<path d="M47.2928 11.8674L20.9563 38.2039C19.2316 37.4407 17.5944 36.421 16.1001 35.1448L44.2337 7.01109C45.5099 8.50445 46.5296 10.1427 47.2928 11.8674Z" fill="#F9C662"/>
<path d="M39.807 36.7647C34.1301 40.4071 27.0133 40.8869 20.9563 38.2038C19.2316 37.4406 17.5945 36.4209 16.1001 35.1447C15.6999 34.8038 15.3117 34.4437 14.9336 34.0667C8.17879 27.3107 7.2787 16.9165 12.2345 9.19226C19.9588 4.23646 30.353 5.13655 37.1089 11.8914C37.487 12.2695 37.846 12.6577 38.1869 13.0579C39.463 14.5513 40.4827 16.1894 41.2461 17.9141C43.9291 23.97 43.4493 31.0879 39.807 36.7647Z" fill="#E0A33F"/>
<path d="M45.0863 19.9555C45.0863 22.9503 44.2657 25.753 42.8376 28.1524C40.039 32.8497 34.9092 35.9974 29.0443 35.9974C25.236 35.9974 21.7384 34.6709 18.987 32.4545C18.1251 31.7596 17.3367 30.9782 16.6348 30.1224C16.2385 29.6397 15.8695 29.1329 15.5316 28.605C13.9307 26.109 13.0024 23.1403 13.0024 19.9555C13.0024 14.0897 16.1511 8.95893 20.8504 6.1622C22.9632 4.90418 25.3888 4.11779 27.9833 3.94782C28.3333 3.92571 28.6872 3.91365 29.0443 3.91365C30.1837 3.91365 31.295 4.03232 32.3659 4.25856C34.2916 4.66387 36.0898 5.41504 37.6927 6.44385C38.2217 6.78178 38.7285 7.15081 39.2122 7.54808C40.068 8.24996 40.8494 9.03846 41.5432 9.90027C43.7598 12.6506 45.0863 16.1482 45.0863 19.9555Z" fill="#FFD488"/>
<path d="M42.8376 28.1525C40.039 32.8498 34.9092 35.9975 29.0443 35.9975C25.236 35.9975 21.7384 34.671 18.987 32.4547C18.1251 31.7598 17.3367 30.9783 16.6348 30.1226C16.2385 29.6398 15.8695 29.133 15.5316 28.6051C13.9307 26.1092 13.0024 23.1404 13.0024 19.9556C13.0024 14.0898 16.1511 8.95904 20.8504 6.16231C26.6468 5.5388 32.6646 7.44856 37.1084 11.8914C37.4866 12.2695 37.8456 12.6577 38.1864 13.0579C39.4626 14.5513 40.4823 16.1894 41.2456 17.9141C42.6797 21.1512 43.2107 24.6911 42.8376 28.1525Z" fill="#F9C662"/>
<path d="M41.543 9.90029L18.9867 32.4547L14.3456 37.0957C13.4657 35.4535 12.7658 33.7037 12.27 31.8664L37.6924 6.44397C38.2214 6.7819 38.7282 7.15093 39.2119 7.54819C40.0679 8.25008 40.8493 9.03848 41.543 9.90029Z" fill="#F9C662"/>
<path d="M32.3654 4.25869L14.6904 21.9328C14.1252 20.8778 13.6757 19.7535 13.3569 18.574L27.9829 3.94794C28.3329 3.92583 28.6868 3.91377 29.0438 3.91377C30.1833 3.91377 31.2946 4.03244 32.3654 4.25869Z" fill="#F9C662"/>
<path d="M29.0443 36.744C24.7432 36.744 20.442 35.1067 17.1675 31.8324C10.6186 25.2835 10.6186 14.6277 17.1675 8.07896C23.7165 1.53009 34.3722 1.53018 40.9211 8.07896C47.47 14.6278 47.47 25.2836 40.9211 31.8324C37.6466 35.1068 33.3455 36.744 29.0443 36.744ZM29.0443 4.6749C25.1293 4.6749 21.2145 6.16509 18.2341 9.14548C12.2734 15.1062 12.2734 24.805 18.2341 30.7657C24.1949 36.7264 33.8938 36.7263 39.8544 30.7657C45.8151 24.805 45.8151 15.1062 39.8544 9.14548C36.874 6.16519 32.9591 4.6749 29.0443 4.6749Z" fill="#E0A33F"/>
<path d="M34.0666 43.1556C28.064 49.1573 19.1903 50.537 11.8672 47.2928C10.1425 46.5295 8.50531 45.5098 7.011 44.2336C6.61077 43.8927 6.2226 43.5327 5.84447 43.1556C-1.94816 35.3619 -1.94816 22.7272 5.84447 14.9335C13.6382 7.14088 26.2729 7.14088 34.0666 14.9335C34.4447 15.3116 34.8037 15.6998 35.1446 16.1C36.4207 17.5934 37.4404 19.2315 38.2037 20.9562C41.448 28.2783 40.0682 37.153 34.0666 43.1556Z" fill="#F4B74A"/>
<path d="M38.204 20.9562L11.8674 47.2928C10.1427 46.5295 8.50554 45.5098 7.01123 44.2336L35.1448 16.1C36.4209 17.5934 37.4406 19.2315 38.204 20.9562Z" fill="#F9C662"/>
<path d="M35.9973 29.0446C35.9973 37.9042 28.8151 45.0864 19.9554 45.0864C14.9544 45.0864 10.4884 42.7986 7.54589 39.2115C5.27514 36.4439 3.91357 32.9031 3.91357 29.0446C3.91357 20.1849 11.0958 13.0027 19.9554 13.0027C23.8151 13.0027 27.3559 14.3664 30.1234 16.637C33.7095 19.5785 35.9973 24.0445 35.9973 29.0446Z" fill="#FFD488"/>
<path d="M30.1234 16.637L7.5479 39.2126L7.54589 39.2116C6.88315 38.4041 6.29792 37.5302 5.80209 36.602C5.23696 35.547 4.78744 34.4227 4.46865 33.2432C4.10661 31.9047 3.91357 30.4968 3.91357 29.0447C3.91357 20.185 11.0958 13.0028 19.9554 13.0028C21.4086 13.0028 22.8165 13.1959 24.1539 13.5579C25.3336 13.8767 26.4578 14.3271 27.5127 14.8924C28.4411 15.3881 29.315 15.9744 30.1234 16.637Z" fill="#F9C662"/>
<path d="M27.5128 14.8923L5.80218 36.6019C5.23706 35.5469 4.78754 34.4226 4.46875 33.2431L24.154 13.5578C25.3335 13.8766 26.4578 14.3271 27.5128 14.8923Z" fill="#FFD488"/>
<path d="M19.9554 45.8329C15.6542 45.8329 11.3531 44.1956 8.07865 40.9213C1.52977 34.3724 1.52977 23.7167 8.07865 17.1679C14.6276 10.619 25.2833 10.6191 31.8323 17.1679C38.3812 23.7168 38.3812 34.3725 31.8323 40.9213C28.5578 44.1956 24.2566 45.8329 19.9554 45.8329ZM19.9555 13.7638C16.0406 13.7638 12.1257 15.254 9.14536 18.2344C3.18467 24.1951 3.18467 33.8939 9.14536 39.8546C15.1061 45.8153 24.805 45.8152 30.7657 39.8546C36.7263 33.8939 36.7263 24.1951 30.7657 18.2344C27.7853 15.254 23.8703 13.7638 19.9555 13.7638Z" fill="#E0A33F"/>
<path d="M19.9557 37.5645C16.9707 37.5645 14.542 35.4842 14.542 32.9274C14.542 32.5109 14.8797 32.1732 15.2962 32.1732C15.7127 32.1732 16.0505 32.5109 16.0505 32.9274C16.0505 34.6525 17.8024 36.056 19.9557 36.056C22.1091 36.056 23.8609 34.6525 23.8609 32.9274C23.8609 31.2024 22.1091 29.7988 19.9557 29.7988C16.9707 29.7988 14.542 27.7187 14.542 25.1617C14.542 22.6048 16.9706 20.5246 19.9557 20.5246C22.9409 20.5246 25.3694 22.6049 25.3694 25.1617C25.3694 25.5782 25.0316 25.9159 24.6151 25.9159C24.1986 25.9159 23.8609 25.5782 23.8609 25.1617C23.8609 23.4365 22.1091 22.033 19.9557 22.033C17.8024 22.033 16.0505 23.4366 16.0505 25.1617C16.0505 26.8867 17.8024 28.2903 19.9557 28.2903C22.9408 28.2903 25.3694 30.3706 25.3694 32.9274C25.3694 35.4842 22.9409 37.5645 19.9557 37.5645Z" fill="#E0A33F"/>
<path d="M19.9554 39.1176C19.5389 39.1176 19.2012 38.7798 19.2012 38.3633V19.7255C19.2012 19.309 19.5389 18.9713 19.9554 18.9713C20.3719 18.9713 20.7096 19.309 20.7096 19.7255V38.3633C20.7096 38.7799 20.3719 39.1176 19.9554 39.1176Z" fill="#E0A33F"/>
</svg>
