<?xml version="1.0" encoding="UTF-8" standalone="no"?>
<!DOCTYPE svg PUBLIC "-//W3C//DTD SVG 1.1//EN" "http://www.w3.org/Graphics/SVG/1.1/DTD/svg11.dtd">
<svg width="100%" height="100%" viewBox="0 0 60 60" version="1.1" xmlns="http://www.w3.org/2000/svg" xmlns:xlink="http://www.w3.org/1999/xlink" xml:space="preserve" xmlns:serif="http://www.serif.com/" style="fill-rule:evenodd;clip-rule:evenodd;stroke-linejoin:round;stroke-miterlimit:1.41421;">
    <g transform="matrix(0.949896,0,0,0.93737,1.50313,2.2547)">
        <path d="M54,58L51,58L51,54L46,54L46,43.778C46,41.078 44.658,38.57 42.411,37.072L31.803,30L42.411,22.928C44.658,21.43 46,18.922 46,16.222L46,6L51,6L51,2L54,2C54.552,2 55,1.553 55,1C55,0.447 54.552,0 54,0L51,0L50,0L10,0L9,0L6,0C5.448,0 5,0.447 5,1C5,1.553 5.448,2 6,2L9,2L9,6L14,6L14,16.222C14,18.922 15.342,21.43 17.589,22.928L28.197,30L17.589,37.072C15.342,38.57 14,41.078 14,43.778L14,54L9,54L9,58L6,58C5.448,58 5,58.447 5,59C5,59.553 5.448,60 6,60L54,60C54.552,60 55,59.553 55,59C55,58.447 54.552,58 54,58ZM11,4L11,2L49,2L49,4L46,4L14,4L11,4ZM18.698,21.264C17.009,20.137 16,18.252 16,16.222L16,6L44,6L44,16.222C44,18.252 42.991,20.137 41.302,21.264L30,28.798L18.698,21.264ZM16,43.778C16,41.748 17.009,39.863 18.698,38.736L30,31.202L41.302,38.736C42.991,39.863 44,41.748 44,43.778L44,54L16,54L16,43.778ZM11,56L49,56L49,58L11,58L11,56Z" style="fill:rgb(45,104,196);fill-rule:nonzero;"/>
        <path d="M20.917,17.936C20.343,17.553 20,16.912 20,16.222L20,14C20,13.447 19.552,13 19,13C18.448,13 18,13.447 18,14L18,16.222C18,17.583 18.676,18.846 19.808,19.6L24.446,22.692C24.616,22.805 24.809,22.86 25,22.86C25.323,22.86 25.64,22.704 25.833,22.415C26.139,21.955 26.015,21.335 25.556,21.028L20.917,17.936Z" style="fill:rgb(45,104,196);fill-rule:nonzero;"/>
        <path d="M40.192,41.26L35.554,38.168C35.094,37.861 34.474,37.985 34.167,38.445C33.861,38.905 33.985,39.525 34.444,39.832L39.082,42.924C39.657,43.307 40,43.947 40,44.638L40,46.86C40,47.413 40.448,47.86 41,47.86C41.552,47.86 42,47.413 42,46.86L42,44.638C42,43.276 41.324,42.014 40.192,41.26Z" style="fill:rgb(45,104,196);fill-rule:nonzero;"/>
    </g>
</svg>
