<svg width="49" height="47" viewBox="0 0 49 47" fill="none" xmlns="http://www.w3.org/2000/svg">
<path d="M32.6946 37.8544C32.3697 37.8544 32.104 37.624 32.104 37.3424V31.9859C32.104 31.7043 32.3697 31.4739 32.6946 31.4739C33.0193 31.4739 33.2852 31.7043 33.2852 31.9859V37.3424C33.2852 37.624 33.0193 37.8544 32.6946 37.8544" fill="#039AE5"/>
<path d="M34.9487 6.09079V8.46367H35.8697L35.8761 8.45808L35.8827 8.46367H37.4995L37.5095 8.45506L37.5192 8.46367H39.27L39.358 8.38727L39.4462 8.46367H41.8012L41.8241 8.4439L41.847 8.46367H46.2236L46.2564 8.43529L46.2889 8.46367H49.0001V6.09079C49.0001 4.40887 48.2128 2.88541 46.9423 1.78382C45.6716 0.682352 43.9143 0 41.9744 0C38.0939 0 34.9487 2.72679 34.9487 6.09079V6.09079Z" fill="url(#paint0_linear)"/>
<path d="M34.9273 41.3778C34.6589 44.5228 31.7104 46.9998 28.0114 46.9998H27.9658C29.8919 46.9888 31.63 46.3082 32.8898 45.216C34.0418 44.2173 34.7958 42.8736 34.9273 41.3778Z" fill="#E3F1FC"/>
<path d="M21.0797 0C19.1362 0 17.3792 0.682352 16.1084 1.78395C14.8378 2.88541 14.0507 4.40887 14.0507 6.09079L14.0503 38.5367H20.9863V40.9093C20.9863 42.5917 21.7732 44.1144 23.0439 45.216C24.3055 46.3097 26.0453 46.9888 27.966 46.9998C29.8923 46.9888 31.6302 46.3082 32.8901 45.216C34.0421 44.2174 34.7962 42.8735 34.9275 41.3778C34.9404 41.2244 34.9476 41.0676 34.9476 40.9093L34.9481 6.09089C34.9481 2.72689 38.0935 9.8199e-05 41.974 9.8199e-05H21.0797V0Z" fill="white"/>
<path d="M13.1307 38.5369L13.1233 38.5415L13.118 38.5369H11.5002L11.4913 38.5447L11.4802 38.5369H0V40.9094C0 42.5918 0.786936 44.1146 2.05762 45.2161C3.3283 46.3178 5.0848 47 7.02537 47H27.9666C26.0457 46.9888 24.3059 46.3098 23.0443 45.2161C21.7738 44.1146 20.9867 42.5919 20.9867 40.9094V38.5369H13.1307V38.5369Z" fill="url(#paint1_linear)"/>
<path d="M22.6875 14.6138H15.8789V15.2365H22.6875V14.6138Z" fill="#546E7A"/>
<path d="M20.4538 16.647H15.8789V17.2698H20.4538V16.647Z" fill="#546E7A"/>
<path d="M21.96 18.6802H15.8789V19.3029H21.96V18.6802Z" fill="#546E7A"/>
<path d="M23.6932 20.7134H15.8774V21.3362H23.6932V20.7134Z" fill="#546E7A"/>
<path d="M22.6875 26.8132H15.8789V27.436H22.6875V26.8132Z" fill="#546E7A"/>
<path d="M18.2713 28.8464H15.8789V29.4691H18.2713V28.8464Z" fill="#546E7A"/>
<path d="M28.2749 22.7467H15.8774V23.3695H28.2749V22.7467Z" fill="#546E7A"/>
<path d="M21.6443 24.78H15.8789V25.4027H21.6443V24.78Z" fill="#546E7A"/>
<path d="M33.0411 14.6138H30.6479V15.2365H33.0411V14.6138Z" fill="#546E7A"/>
<path d="M33.0424 16.647H31.3271V17.2698H33.0424V16.647Z" fill="#546E7A"/>
<path d="M33.0411 18.6802H30.6479V19.3029H33.0411V18.6802Z" fill="#546E7A"/>
<path d="M33.0411 20.7134H30.6479V21.3362H33.0411V20.7134Z" fill="#546E7A"/>
<path d="M33.0424 26.8132H31.3271V27.436H33.0424V26.8132Z" fill="#546E7A"/>
<path d="M33.0411 28.8464H30.6479V29.4691H33.0411V28.8464Z" fill="#546E7A"/>
<path d="M33.0424 22.7467H31.3271V23.3695H33.0424V22.7467Z" fill="#546E7A"/>
<path d="M33.0411 24.78H30.6479V25.4027H33.0411V24.78Z" fill="#546E7A"/>
<path d="M22.6875 32.7978H15.8789V33.4205H22.6875V32.7978Z" fill="#546E7A"/>
<path d="M18.2713 34.8309H15.8789V35.8628H18.2713V34.8309Z" fill="black"/>
<path d="M21.6443 30.7645H15.8789V31.3873H21.6443V30.7645Z" fill="#546E7A"/>
<path d="M33.0424 32.7978H31.3271V33.4205H33.0424V32.7978Z" fill="#546E7A"/>
<path d="M33.0411 34.8309H30.6479V35.8628H33.0411V34.8309Z" fill="black"/>
<path d="M33.0411 30.7645H30.6479V31.3873H33.0411V30.7645Z" fill="#546E7A"/>
<path d="M29.2542 9.0025H20.1616V9.74773H29.2542V9.0025Z" fill="#37474F"/>
<path d="M27.5462 5.86505H21.8682V6.61028H27.5462V5.86505Z" fill="#37474F"/>
<path d="M31.0083 7.43378H18.4048V8.17901H31.0083V7.43378Z" fill="#37474F"/>
<rect x="18.6665" y="11" width="11.6667" height="1" fill="black"/>
<defs>
<linearGradient id="paint0_linear" x1="41.9743" y1="8.34953" x2="41.9743" y2="-0.0681499" gradientUnits="userSpaceOnUse">
<stop stop-color="#E0F4FD"/>
<stop offset="1" stop-color="#B2E4FB"/>
</linearGradient>
<linearGradient id="paint1_linear" x1="13.9833" y1="40.8151" x2="13.9833" y2="46.9642" gradientUnits="userSpaceOnUse">
<stop stop-color="#E0F4FD"/>
<stop offset="1" stop-color="#B2E4FB"/>
</linearGradient>
</defs>
</svg>
