<svg width="84" height="84" viewBox="0 0 84 84" fill="none" xmlns="http://www.w3.org/2000/svg">
<path d="M78.4668 42.9678L67.1465 64.5747C64.144 70.2842 58.2871 73.8283 51.8893 73.8283H31.2661L21.9145 83.1472C21.4223 83.59 20.7827 83.8361 20.1918 83.8361C19.5522 83.8361 18.9126 83.59 18.4198 83.1472L6.11511 70.8745C5.18008 69.8908 5.18008 68.3155 6.11511 67.3805L20.684 52.8116C22.9976 50.4987 26.0981 49.2188 29.396 49.2188H54.9898C55.7281 49.2188 56.417 49.6123 56.8112 50.2526C57.2047 50.8922 57.2047 51.6798 56.8599 52.3687C55.7768 54.4855 54.4976 56.9465 54.0548 57.7334C53.6113 58.5704 52.775 59.0626 51.8893 59.0626H35.1542C33.7764 59.0626 32.6933 60.1457 32.6933 61.5236C32.6933 62.9014 33.7764 63.9845 35.1542 63.9845H51.8893C54.645 63.9845 57.106 62.4586 58.3858 60.047L65.9654 45.6255C67.9835 41.7867 71.9703 39.3751 76.3013 39.3751C77.1383 39.3751 77.9259 39.8179 78.3688 40.5562C78.8609 41.2945 78.8609 42.2295 78.4668 42.9678V42.9678Z" fill="#FFA78F"/>
<path d="M51.8893 59.0626H42.537V49.2188H54.9898C55.7281 49.2188 56.417 49.6123 56.8112 50.2526C57.2046 50.8922 57.2046 51.6798 56.8599 52.3687C55.7768 54.4855 54.4976 56.9465 54.0548 57.7334C53.6113 58.5704 52.775 59.0626 51.8893 59.0626V59.0626Z" fill="#F89580"/>
<path d="M78.4668 42.9678L67.1465 64.5747C64.144 70.2843 58.2871 73.8283 51.8893 73.8283H42.537V63.9845H51.8893C54.645 63.9845 57.106 62.4586 58.3858 60.047L65.9653 45.6255C67.9834 41.7867 71.9703 39.3751 76.3013 39.3751C77.1383 39.3751 77.9259 39.8179 78.3688 40.5562C78.8609 41.2945 78.8609 42.2295 78.4668 42.9678V42.9678Z" fill="#F89580"/>
<g clip-path="url(#clip0)">
<path d="M32.198 16.6248C31.5235 15.7249 31.0655 14.6823 30.8926 13.5709L29.5631 5.02531C29.9033 4.91584 30.1538 4.60752 30.1538 4.23077V2.53846C30.1538 2.07117 29.775 1.69231 29.3077 1.69231H24.2308C23.7635 1.69231 23.3846 2.07117 23.3846 2.53846V4.23077C23.3846 4.60752 23.6352 4.91584 23.9754 5.02531L22.6459 13.5708C22.4731 14.6823 22.015 15.7249 21.3405 16.6247C20.4998 17.7463 20 19.1351 20 20.6461V40.9537C20 41.7016 20.6061 42.3077 21.3538 42.3077H32.1846C32.9324 42.3077 33.5385 41.7016 33.5385 40.9537V20.6461C33.5385 19.1351 33.0387 17.7463 32.198 16.6248Z" fill="#753918"/>
<path d="M20 28.7692V40.9537C20 41.7016 20.6061 42.3077 21.3538 42.3077H32.1846C32.9324 42.3077 33.5385 41.7016 33.5385 40.9537V28.7692H20Z" fill="#4F291B"/>
<path d="M60.6154 18.6154H57.2308V16.9231H36.9231V41.4615C36.9231 41.9288 37.3019 42.3077 37.7692 42.3077H56.3846C56.8519 42.3077 57.2308 41.9288 57.2308 41.4615V37.2308H60.6154C62.4846 37.2308 64 35.7154 64 33.8462V22C64 20.1307 62.4846 18.6154 60.6154 18.6154ZM60.6154 33.8462H57.2308V22H60.6154V33.8462Z" fill="#CDDCF0"/>
<path d="M38.6154 22V38.9231H55.5385V22C49.4256 22 44.7251 22 38.6154 22Z" fill="#F9C566"/>
<path d="M31.8462 22H21.6923V37.2308H31.8462V22Z" fill="white"/>
<path d="M30.1538 28.7692H23.3846V30.4615H30.1538V28.7692Z" fill="#ABABAB"/>
<path d="M26.7692 27.0769C27.7039 27.0769 28.4615 26.3192 28.4615 25.3846C28.4615 24.45 27.7039 23.6923 26.7692 23.6923C25.8346 23.6923 25.0769 24.45 25.0769 25.3846C25.0769 26.3192 25.8346 27.0769 26.7692 27.0769Z" fill="#ABABAB"/>
<path d="M30.1538 32.1538H23.3846V33.8462H30.1538V32.1538Z" fill="#ABABAB"/>
<path d="M55.5385 38.8228C53.2917 37.3116 50.3323 36.3846 47.0769 36.3846C43.8216 36.3846 40.8621 37.3116 38.6154 38.8228V38.9231H55.5385V38.8228Z" fill="#FCD18B"/>
<path opacity="0.5" d="M55.5385 18.6154H38.6154V22H55.5385V18.6154Z" fill="#EFEEEE"/>
<path opacity="0.3" d="M60.6154 18.6154H57.2308V22H60.6154V33.8461H57.2308V37.2308H60.6154C62.4848 37.2308 64 35.7153 64 33.8461V22C64 20.1306 62.4848 18.6154 60.6154 18.6154Z" fill="#EFEEEE"/>
<path d="M57.3862 18.6154C58.4881 17.4687 59.1016 15.8491 58.8772 14.088C58.5861 11.8047 56.8228 9.89683 54.5694 9.42721C53.8494 9.27713 53.151 9.27343 52.4934 9.38787C51.5461 9.55266 50.5897 9.43885 49.7161 9.03735C48.9127 8.66811 48.0192 8.46154 47.0769 8.46154C46.1346 8.46154 45.2412 8.66811 44.4378 9.03735C43.5641 9.43895 42.6078 9.55266 41.6605 9.38787C41.0027 9.27343 40.3043 9.27713 39.5844 9.42721C37.331 9.89693 35.5678 11.8047 35.2767 14.088C35.0522 15.8491 35.6657 17.4687 36.7677 18.6154H57.3862V18.6154Z" fill="#EFEEEE"/>
<path d="M49.6154 24.5385C50.0827 24.5385 50.4615 24.1596 50.4615 23.6923C50.4615 23.225 50.0827 22.8462 49.6154 22.8462C49.1481 22.8462 48.7692 23.225 48.7692 23.6923C48.7692 24.1596 49.1481 24.5385 49.6154 24.5385Z" fill="#FCD18B"/>
<path d="M49.6154 28.7692C50.0827 28.7692 50.4615 28.3904 50.4615 27.9231C50.4615 27.4558 50.0827 27.0769 49.6154 27.0769C49.1481 27.0769 48.7692 27.4558 48.7692 27.9231C48.7692 28.3904 49.1481 28.7692 49.6154 28.7692Z" fill="#FCD18B"/>
<path d="M52.1538 26.2308C52.6212 26.2308 53 25.8519 53 25.3846C53 24.9173 52.6212 24.5385 52.1538 24.5385C51.6865 24.5385 51.3077 24.9173 51.3077 25.3846C51.3077 25.8519 51.6865 26.2308 52.1538 26.2308Z" fill="#FCD18B"/>
<path d="M52.1538 30.4615C52.6212 30.4615 53 30.0827 53 29.6154C53 29.1481 52.6212 28.7692 52.1538 28.7692C51.6865 28.7692 51.3077 29.1481 51.3077 29.6154C51.3077 30.0827 51.6865 30.4615 52.1538 30.4615Z" fill="#FCD18B"/>
<path d="M49.6154 35.5385C50.0827 35.5385 50.4615 35.1596 50.4615 34.6923C50.4615 34.225 50.0827 33.8462 49.6154 33.8462C49.1481 33.8462 48.7692 34.225 48.7692 34.6923C48.7692 35.1596 49.1481 35.5385 49.6154 35.5385Z" fill="#FCD18B"/>
<path d="M49.6154 32.1538C50.0827 32.1538 50.4615 31.775 50.4615 31.3077C50.4615 30.8404 50.0827 30.4615 49.6154 30.4615C49.1481 30.4615 48.7692 30.8404 48.7692 31.3077C48.7692 31.775 49.1481 32.1538 49.6154 32.1538Z" fill="#FCD18B"/>
<path d="M52.1538 33.8462C52.6212 33.8462 53 33.4673 53 33C53 32.5327 52.6212 32.1538 52.1538 32.1538C51.6865 32.1538 51.3077 32.5327 51.3077 33C51.3077 33.4673 51.6865 33.8462 52.1538 33.8462Z" fill="#FCD18B"/>
<path d="M36.9231 18.6154C36.9231 18.6154 43.6923 18.6505 43.6923 26.2308V28.749C43.6923 29.6849 44.4488 30.4413 45.3846 30.4413C46.3205 30.4413 47.0769 29.6849 47.0769 28.749V26.2308C47.0769 18.6505 53.8462 18.6154 53.8462 18.6154H36.9231Z" fill="#EFEEEE"/>
</g>
<defs>
<clipPath id="clip0">
<rect width="44" height="44" fill="white" transform="translate(20)"/>
</clipPath>
</defs>
</svg>
