<?xml version="1.0" encoding="utf-8"?>
<!-- Generator: Adobe Illustrator 18.1.1, SVG Export Plug-In . SVG Version: 6.00 Build 0)  -->
<svg version="1.1" id="Isolation_Mode" xmlns="http://www.w3.org/2000/svg" xmlns:xlink="http://www.w3.org/1999/xlink" x="0px"
	 y="0px" viewBox="0 0 178.8 57.7" enable-background="new 0 0 178.8 57.7" xml:space="preserve">
<g>
	<g>
		<path fill="#2A2D83" d="M84.9,35.7l-2,9.9c-0.9,4-3.3,6.7-8.2,6.7c-5.7,0-7.2-3.5-5.9-8.5C70.5,36.8,76.2,34.7,84.9,35.7
			 M93.8,21.5l-6,0.4l-1.9,9.7c-2.3-0.1-3-0.2-5.8-0.2c-8.5,0-15.9,3.6-17.9,11.9c-1.8,7.6,2.5,13.4,11.9,13.4c9.6,0,13.7-5,15.2-12
			L93.8,21.5z"/>
		<path fill="#2A2D83" d="M28.3,36.1c-8.8-0.8-16.5-0.1-16.6,2.9c-0.2,4.5,14.6,0.6,14.3,8.9c-0.4,12.2-21,9.4-26,7.8l0.9-3.6
			c8.8,1.4,18,1.5,18.2-3.3c0.2-5.1-14.6-0.5-14.3-8.8c0.3-6.2,9.5-9.5,24.7-7.3L28.3,36.1z"/>
		<path fill="#2A2D83" d="M52.2,44.4c-1.3,5.1-5.3,8.3-10.1,8.3c-5,0-7.3-2.9-5.9-8.3c1.3-5.1,5.4-8.5,10.2-8.5
			C51.1,35.9,53.5,39.3,52.2,44.4 M47.1,31.7c-8.8,0-15.9,5.1-17.6,12.7c-1.7,7.6,3,12.7,11.8,12.7c8.8,0,15.9-5.1,17.6-12.7
			C60.6,36.8,55.9,31.7,47.1,31.7"/>
		<path fill="#2A2D83" d="M148.7,57h-7.7c-4.6-4.4-13.5-14.4-20-25h5.6C132.9,40.5,148.7,57,148.7,57"/>
		<polygon fill="#2A2D83" points="156.8,7.3 160.3,0 161.3,7.5 168.5,4.9 163.4,11.4 168.9,15.6 161.6,16.2 161.2,23.9 157.2,18.2 
			151.2,23.6 153.5,15.9 146.5,15 153.3,11.1 150.5,4.5 		"/>
		<path fill="#2A2D83" d="M171.7,44.5c-1.3,5.2-5.4,8.4-10.3,8.4c-5.1,0-7.4-3-6-8.4c1.3-5.2,5.4-8.6,10.3-8.6
			C170.6,35.8,173,39.3,171.7,44.5 M166.5,31.6c-8.9,0-16.1,5.2-17.9,12.9c-1.8,7.7,3,12.9,12,12.9c8.9,0,16.1-5.2,17.9-12.9
			C180.2,36.8,175.4,31.6,166.5,31.6"/>
		<path fill="#2A2D83" d="M109.5,35.5c2.8,0,4.3,1,4.3,2.9c0,5.1-9.9,4.8-14.3,3.9C101,38.4,104.5,35.5,109.5,35.5 M119.7,38.1
			c0-3.7-2.9-6.4-9.6-6.4c-10.8,0-17.9,7-17.9,15.7c0,5.6,4.7,10.3,13.2,10.3c5.9,0,9.8-2.9,9.8-2.9c-7.5,0.8-16.7,0-16.7-8
			c0-0.3,0-0.6,0-1C108.8,48,119.7,45.4,119.7,38.1"/>
	</g>
	<path fill="#DF051C" d="M115.3,54.8c14.4-8,27-20.3,35.9-31C144.8,43.8,129.3,54.6,115.3,54.8"/>
</g>
</svg>
