<svg width="52" height="49" viewBox="0 0 52 49" fill="none" xmlns="http://www.w3.org/2000/svg">
<path d="M50.6582 17.7017L33.8533 16.158L27.1779 0.80621C26.7106 -0.268737 25.1717 -0.268737 24.7043 0.80621L18.029 16.1581L1.22413 17.7017C0.0474522 17.8098 -0.428102 19.2592 0.459673 20.0316L13.139 31.0633L9.42842 47.3692C9.1686 48.5109 10.4136 49.4067 11.4296 48.8092L25.9412 40.2752L40.4527 48.8092C41.4688 49.4067 42.7139 48.5109 42.454 47.3692L38.7433 31.0633L51.4227 20.0316C52.3105 19.2592 51.8349 17.8098 50.6582 17.7017Z" fill="#FFDC64"/>
<path d="M27.1779 0.80621C26.7106 -0.268737 25.1717 -0.268737 24.7043 0.80621L18.029 16.1581L1.22413 17.7017C0.0474522 17.8098 -0.428102 19.2592 0.459673 20.0316L13.139 31.0633L9.42842 47.3692C9.1686 48.5109 10.4136 49.4067 11.4296 48.8092L14.6685 46.9045C15.1168 28.629 23.6906 15.7592 30.4786 8.39697L27.1779 0.80621Z" fill="#FFC850"/>
</svg>
