<svg width="39" height="38" viewBox="0 0 39 38" fill="none" xmlns="http://www.w3.org/2000/svg">
<path d="M19.0153 23.5303C21.5884 23.5303 23.6746 21.4405 23.6746 18.8624C23.6746 16.2836 21.5884 14.1937 19.0153 14.1937C16.4494 14.1937 14.3603 16.2836 14.3603 18.8624C14.3603 21.4405 16.4494 23.5303 19.0153 23.5303Z" fill="#F6BE00"/>
<path d="M19.0153 37.6954C21.7177 37.6954 23.9101 35.4984 23.9101 32.7921C23.9101 30.0792 21.717 27.8822 19.0153 27.8822C16.3157 27.8822 14.1234 30.0799 14.1234 32.7921C14.1234 35.4991 16.3157 37.6954 19.0153 37.6954Z" fill="#F6BE00"/>
<path d="M28.2504 4.90624C28.2504 7.61476 30.442 9.81466 33.1423 9.81466C35.8491 9.81466 38.0342 7.61403 38.0342 4.90624C38.0342 2.1999 35.8484 0 33.1423 0C30.442 0 28.2504 2.1999 28.2504 4.90624Z" fill="#2D68C4"/>
<path d="M14.1234 4.90624C14.1234 7.61476 16.315 9.81466 19.0153 9.81466C21.7221 9.81466 23.9101 7.61403 23.9101 4.90624C23.9101 2.1999 21.7214 0 19.0153 0C16.3143 0 14.1234 2.1999 14.1234 4.90624Z" fill="#36AB51"/>
<path d="M-1.41926e-06 4.90624C-1.41926e-06 7.61476 2.18434 9.81466 4.89188 9.81466C7.59288 9.81466 9.78375 7.61403 9.78375 4.90624C9.78375 2.1999 7.59215 0 4.89188 0C2.18434 0 -1.41926e-06 2.1999 -1.41926e-06 4.90624Z" fill="#2D68C4"/>
</svg>
